257.3063;207.7245;184.2474;0.3738;-0.1217;0.7372;-0.5496;
257.5028;209.3055;185.1344;0.3755;-0.1177;0.7385;-0.5475;
257.6927;210.8674;186.0055;0.3771;-0.1138;0.7398;-0.5454;
257.9506;212.7771;187.1431;0.3791;-0.1088;0.7414;-0.5429;
258.3111;215.4329;188.7769;0.3820;-0.1018;0.7436;-0.5393;
258.4611;216.5460;189.4789;0.3832;-0.0987;0.7445;-0.5378;
258.6557;218.0092;190.4304;0.3847;-0.0947;0.7457;-0.5357;
259.0097;220.5964;192.0823;0.3874;-0.0877;0.7477;-0.5322;
259.2194;222.0538;193.0343;0.3889;-0.0836;0.7488;-0.5301;
259.4081;223.4954;193.9878;0.3903;-0.0796;0.7500;-0.5281;
259.6622;225.3110;195.1896;0.3921;-0.0746;0.7514;-0.5254;
259.8705;226.7357;196.1650;0.3936;-0.0705;0.7525;-0.5234;
260.0029;227.7733;196.8979;0.3946;-0.0675;0.7533;-0.5219;
260.2533;229.4785;198.1456;0.3963;-0.0624;0.7546;-0.5193;
260.5670;231.5359;199.6817;0.3983;-0.0562;0.7561;-0.5163;
260.7479;232.8784;200.6841;0.3996;-0.0522;0.7571;-0.5142;
260.9273;234.2169;201.6765;0.4009;-0.0481;0.7581;-0.5122;
261.1464;235.5555;202.6958;0.4022;-0.0440;0.7590;-0.5101;
261.3477;236.8860;203.7188;0.4034;-0.0399;0.7599;-0.5081;
261.4781;237.8676;204.4727;0.4043;-0.0369;0.7607;-0.5065;
261.6754;239.1568;205.4840;0.4055;-0.0329;0.7616;-0.5045;
261.9331;240.7500;206.8089;0.4070;-0.0277;0.7626;-0.5020;
262.1258;241.9993;207.8517;0.4081;-0.0236;0.7635;-0.5000;
262.3042;243.2526;208.8766;0.4092;-0.0196;0.7644;-0.4979;
262.5063;244.4948;209.9232;0.4103;-0.0154;0.7652;-0.4959;
262.8626;246.6290;211.8058;0.4122;-0.0083;0.7666;-0.4923;
263.0040;247.5219;212.5788;0.4130;-0.0052;0.7672;-0.4908;
263.2361;249.0147;213.9041;0.4143;0.0001;0.7681;-0.4883;
263.4454;250.1909;214.9832;0.4152;0.0040;0.7688;-0.4863;
263.6377;251.3585;216.0515;0.4162;0.0082;0.7696;-0.4842;
263.8226;252.4953;217.1144;0.4171;0.0123;0.7702;-0.4823;
264.0155;253.6181;218.1944;0.4180;0.0164;0.7709;-0.4803;
264.4146;255.8494;220.3544;0.4198;0.0247;0.7722;-0.4763;
264.5896;256.9375;221.4356;0.4207;0.0287;0.7728;-0.4744;
264.7945;258.0020;222.5328;0.4215;0.0329;0.7734;-0.4724;
265.1348;259.8782;224.4446;0.4229;0.0401;0.7744;-0.4689;
265.3265;260.8996;225.5389;0.4237;0.0442;0.7749;-0.4670;
265.5182;261.9164;226.6383;0.4244;0.0483;0.7754;-0.4650;
265.8753;263.7138;228.5612;0.4257;0.0556;0.7763;-0.4616;
266.0504;264.7026;229.6594;0.4263;0.0596;0.7768;-0.4597;
266.2395;265.6744;230.7428;0.4270;0.0637;0.7772;-0.4577;
266.4591;266.6503;231.8688;0.4277;0.0680;0.7777;-0.4558;
266.6520;267.5956;232.9829;0.4283;0.0720;0.7780;-0.4539;
266.7837;268.2851;233.8092;0.4287;0.0750;0.7784;-0.4525;
267.0214;269.4318;235.1837;0.4295;0.0802;0.7788;-0.4501;
267.3741;271.0045;237.1545;0.4304;0.0873;0.7794;-0.4469;
267.5014;271.6812;237.9598;0.4308;0.0904;0.7797;-0.4454;
267.7582;272.8059;239.3353;0.4314;0.0955;0.7801;-0.4430;
267.9604;273.6704;240.4580;0.4319;0.0997;0.7803;-0.4412;
273.8975;293.5486;273.4109;0.4370;0.2211;0.7799;-0.3896;
273.9493;293.7365;273.6486;0.4369;0.2220;0.7801;-0.3890;
283.2560;303.3584;319.3011;0.4135;0.4048;0.7452;-0.3314;
289.0285;288.9746;345.8535;0.3636;0.5698;0.6647;-0.3183;
289.3825;286.3244;345.4716;0.3613;0.5797;0.6560;-0.3210;
289.8961;283.2711;344.0935;0.3612;0.5874;0.6474;-0.3246;
290.2820;281.5096;342.9687;0.3621;0.5905;0.6430;-0.3268;
291.0100;278.8980;340.9426;0.3646;0.5933;0.6373;-0.3300;
291.9594;276.0609;338.3803;0.3685;0.5945;0.6321;-0.3334;
293.9394;270.6204;332.8582;0.3780;0.5926;0.6246;-0.3405;
295.8084;266.3332;328.2217;0.3864;0.5889;0.6200;-0.3458;
297.1476;263.4436;325.0373;0.3921;0.5859;0.6173;-0.3492;
300.7120;255.2759;316.5982;0.4070;0.5775;0.6102;-0.3585;
303.4812;248.4499;310.1966;0.4178;0.5710;0.6047;-0.3658;
305.7513;242.5713;305.2072;0.4261;0.5658;0.6000;-0.3719;
309.5616;231.9468;296.8805;0.4394;0.5570;0.5920;-0.3824;
311.1169;227.2683;293.4824;0.4445;0.5533;0.5887;-0.3868;
313.7105;219.2430;288.0938;0.4527;0.5474;0.5831;-0.3942;
316.7120;209.2085;282.0822;0.4616;0.5406;0.5763;-0.4031;
318.6023;202.3581;278.3316;0.4670;0.5363;0.5718;-0.4090;
320.4362;195.4360;274.7748;0.4719;0.5324;0.5674;-0.4147;
322.6251;186.5599;270.6433;0.4776;0.5274;0.5619;-0.4219;
323.9420;181.1484;268.3350;0.4808;0.5248;0.5585;-0.4261;
325.5886;173.8287;265.4399;0.4847;0.5214;0.5540;-0.4316;
327.2125;166.4089;262.7776;0.4883;0.5181;0.5495;-0.4372;
329.7734;153.3073;258.5816;0.4938;0.5131;0.5418;-0.4465;
331.1773;145.6620;256.5128;0.4965;0.5106;0.5373;-0.4517;
332.1542;139.8889;255.1053;0.4984;0.5089;0.5339;-0.4556;
333.7196;130.1859;253.0317;0.5013;0.5063;0.5282;-0.4619;
334.8793;122.3667;251.6213;0.5033;0.5045;0.5236;-0.4668;
335.6832;116.4974;250.6859;0.5047;0.5034;0.5202;-0.4704;
336.9980;106.6243;249.4373;0.5068;0.5018;0.5144;-0.4762;
338.4135;94.7258;248.3785;0.5089;0.5005;0.5073;-0.4829;
339.2318;86.7544;247.9594;0.5101;0.5000;0.5025;-0.4871;
339.8088;80.7740;247.7791;0.5109;0.4997;0.4989;-0.4903;
340.6042;70.9910;247.6857;0.5120;0.4996;0.4931;-0.4951;
341.2797;61.9097;247.8847;0.5128;0.5000;0.4875;-0.4994;
341.5805;57.1100;248.1280;0.5133;0.5002;0.4845;-0.5016;
341.8967;51.7817;248.4995;0.5137;0.5007;0.4811;-0.5039;
342.2154;46.4110;249.0154;0.5142;0.5012;0.4776;-0.5062;
342.3837;44.4612;249.2817;0.5145;0.5015;0.4761;-0.5070;
342.4569;43.6905;249.4017;0.5145;0.5017;0.4756;-0.5073;
342.5416;43.0829;249.6029;0.5147;0.5018;0.4749;-0.5076;
342.5520;43.0592;249.6294;0.5148;0.5018;0.4749;-0.5076;
342.5536;43.0238;249.5704;0.5148;0.5018;0.4749;-0.5076;
342.5338;42.9506;248.9474;0.5147;0.5019;0.4749;-0.5077;
342.5507;42.8736;247.8690;0.5148;0.5019;0.4747;-0.5078;
342.5476;42.9136;245.5542;0.5146;0.5021;0.4748;-0.5076;
342.5422;42.9472;243.5131;0.5146;0.5021;0.4748;-0.5076;
342.5363;42.9546;242.2922;0.5146;0.5021;0.4749;-0.5076;
342.5056;42.9449;239.4590;0.5147;0.5020;0.4747;-0.5077;
342.4824;42.9647;237.8143;0.5147;0.5020;0.4748;-0.5076;
342.4941;42.9962;236.5701;0.5148;0.5020;0.4748;-0.5076;
342.4784;42.9846;234.1541;0.5148;0.5020;0.4747;-0.5076;
342.4449;42.9922;232.5232;0.5148;0.5019;0.4747;-0.5076;
342.4133;43.0105;230.8805;0.5148;0.5019;0.4748;-0.5076;
342.4264;42.9999;228.8707;0.5149;0.5018;0.4747;-0.5077;
342.4125;42.9979;227.2495;0.5149;0.5018;0.4747;-0.5077;
342.3843;43.0465;225.5863;0.5148;0.5019;0.4748;-0.5076;
342.3762;43.0271;224.3938;0.5148;0.5018;0.4748;-0.5076;
342.3495;42.9847;221.5999;0.5149;0.5017;0.4747;-0.5077;
342.3284;42.9952;219.9702;0.5149;0.5017;0.4747;-0.5077;
342.3070;43.0415;218.7122;0.5148;0.5018;0.4749;-0.5077;
342.3254;43.0425;216.6878;0.5148;0.5018;0.4749;-0.5076;
342.2863;43.0076;215.1046;0.5149;0.5018;0.4748;-0.5077;
342.2590;43.0167;213.4817;0.5149;0.5018;0.4747;-0.5077;
342.2420;43.0511;211.8316;0.5148;0.5018;0.4748;-0.5076;
342.2510;43.0471;210.2229;0.5149;0.5018;0.4748;-0.5076;
342.2510;43.0195;208.6327;0.5149;0.5019;0.4747;-0.5076;
342.2315;43.0162;207.0217;0.5149;0.5019;0.4747;-0.5076;
342.2139;43.0252;205.3966;0.5150;0.5019;0.4747;-0.5075;
342.1740;43.0445;202.9597;0.5150;0.5019;0.4747;-0.5075;
342.1904;42.9469;201.5424;0.5152;0.5018;0.4743;-0.5078;
342.2709;42.7409;200.6283;0.5154;0.5018;0.4739;-0.5079;
342.2744;42.7433;200.0916;0.5154;0.5017;0.4740;-0.5079;
342.1904;42.9475;199.7749;0.5150;0.5018;0.4745;-0.5078;
342.2270;42.9574;199.9535;0.5150;0.5019;0.4746;-0.5077;
342.3557;43.1702;201.1152;0.5144;0.5021;0.4754;-0.5072;
342.2756;43.8714;203.9550;0.5128;0.5028;0.4775;-0.5062;
341.5647;45.1923;207.2416;0.5105;0.5030;0.4803;-0.5056;
340.8952;46.1378;212.4227;0.5089;0.5031;0.4821;-0.5054;
340.3277;46.7950;217.1495;0.5079;0.5027;0.4835;-0.5055;
340.1075;47.7045;226.1692;0.5077;0.5022;0.4845;-0.5052;
340.2123;48.5346;231.6915;0.5083;0.5018;0.4846;-0.5050;
340.5028;50.5019;238.3074;0.5096;0.5009;0.4846;-0.5045;
340.7675;54.1928;243.1712;0.5108;0.5002;0.4857;-0.5031;
340.8238;61.5348;246.2781;0.5112;0.5001;0.4889;-0.4996;
340.6082;67.0158;246.8967;0.5109;0.5001;0.4920;-0.4969;
340.0305;74.8407;247.0934;0.5101;0.5002;0.4966;-0.4930;
339.3105;82.8383;247.2472;0.5090;0.5005;0.5014;-0.4889;
338.2372;94.6010;248.0348;0.5077;0.5012;0.5080;-0.4827;
337.1427;104.3793;249.0045;0.5062;0.5022;0.5135;-0.4773;
336.1765;112.2355;249.9991;0.5049;0.5033;0.5178;-0.4728;
334.3029;125.9299;252.1724;0.5018;0.5060;0.5257;-0.4645;
333.4270;131.7134;253.3408;0.5004;0.5072;0.5290;-0.4609;
332.1673;139.4303;255.0491;0.4981;0.5094;0.5334;-0.4559;
329.8068;152.7863;258.5559;0.4935;0.5136;0.5412;-0.4469;
328.3897;160.2905;260.8644;0.4906;0.5163;0.5456;-0.4417;
327.2534;165.9043;262.7126;0.4882;0.5185;0.5490;-0.4376;
324.8529;176.9579;266.7944;0.4827;0.5234;0.5556;-0.4294;
323.1762;184.2180;269.7773;0.4787;0.5269;0.5600;-0.4238;
321.8538;189.5624;272.1614;0.4754;0.5296;0.5634;-0.4196;
320.0976;196.6253;275.5264;0.4708;0.5336;0.5678;-0.4138;
318.2414;203.5354;279.1007;0.4658;0.5376;0.5723;-0.4081;
316.3011;210.3950;282.8542;0.4603;0.5420;0.5768;-0.4022;
314.3185;217.0353;286.8553;0.4544;0.5465;0.5812;-0.3963;
312.8089;221.9520;289.9769;0.4497;0.5499;0.5846;-0.3918;
309.1559;233.0686;297.7044;0.4378;0.5583;0.5926;-0.3814;
306.9794;239.2404;302.3851;0.4303;0.5633;0.5972;-0.3753;
304.7860;245.1704;307.2876;0.4224;0.5684;0.6018;-0.3692;
302.5401;250.9431;312.3653;0.4139;0.5736;0.6065;-0.3631;
300.2410;256.5625;317.6321;0.4048;0.5789;0.6112;-0.3569;
298.5236;260.6286;321.7122;0.3977;0.5829;0.6148;-0.3522;
296.2188;265.7703;327.2542;0.3877;0.5884;0.6193;-0.3462;
293.4806;271.5755;334.0163;0.3752;0.5948;0.6249;-0.3391;
291.5685;275.4276;338.8329;0.3662;0.5991;0.6287;-0.3342;
289.9889;278.4697;342.7886;0.3585;0.6026;0.6320;-0.3301;
289.0931;280.1653;345.0888;0.3540;0.6046;0.6338;-0.3278;
288.1287;282.0177;347.6255;0.3491;0.6068;0.6358;-0.3251;
287.7294;282.7873;348.6658;0.3471;0.6075;0.6368;-0.3240;
287.5656;283.1459;349.0731;0.3463;0.6078;0.6372;-0.3234;
287.4976;283.3015;349.1788;0.3461;0.6078;0.6374;-0.3231;
287.4108;283.5659;349.2179;0.3465;0.6075;0.6377;-0.3227;
287.3683;284.4830;349.2861;0.3485;0.6062;0.6385;-0.3215;
287.4112;286.0364;349.3699;0.3523;0.6040;0.6395;-0.3194;
287.6157;290.8518;349.4779;0.3644;0.5974;0.6422;-0.3129;
287.8867;296.7622;349.5129;0.3789;0.5892;0.6453;-0.3047;
287.7895;303.9272;349.3294;0.3964;0.5790;0.6486;-0.2948;
287.3832;309.8525;349.0082;0.4102;0.5703;0.6514;-0.2866;
285.0370;323.8315;347.3199;0.4420;0.5482;0.6577;-0.2676;
282.9739;331.5531;345.7975;0.4595;0.5349;0.6608;-0.2571;
280.5575;339.0429;343.9013;0.4767;0.5212;0.6634;-0.2469;
276.1718;349.8361;340.3197;0.5011;0.5002;0.6672;-0.2317;
272.7877;356.6618;337.4566;0.5166;0.4859;0.6692;-0.2218;
268.1415;364.6685;333.3576;0.5349;0.4678;0.6715;-0.2100;
262.1122;373.5388;327.7924;0.5556;0.4460;0.6738;-0.1961;
257.7819;379.0207;323.7044;0.5684;0.4314;0.6751;-0.1872;
254.4220;382.8683;320.4501;0.5776;0.4204;0.6760;-0.1807;
245.0809;391.9882;311.0930;0.6002;0.3915;0.6779;-0.1641;
241.4319;395.0368;307.3471;0.6080;0.3807;0.6786;-0.1581;
236.4879;398.7897;302.2094;0.6178;0.3664;0.6794;-0.1503;
230.1798;402.9188;295.5119;0.6292;0.3486;0.6803;-0.1408;
225.1008;405.7676;289.9890;0.6376;0.3347;0.6809;-0.1335;
219.9709;408.2767;284.3528;0.6455;0.3208;0.6815;-0.1265;
214.7730;410.4709;278.6096;0.6528;0.3071;0.6821;-0.1196;
205.6518;413.3955;268.2958;0.6643;0.2836;0.6830;-0.1081;
200.4432;414.6373;262.3167;0.6703;0.2703;0.6836;-0.1017;
195.2258;415.5283;256.2744;0.6758;0.2573;0.6841;-0.0956;
189.9923;416.1845;250.2188;0.6808;0.2444;0.6846;-0.0895;
184.7643;416.4580;244.0716;0.6854;0.2319;0.6852;-0.0838;
179.5709;416.4841;237.9487;0.6897;0.2193;0.6857;-0.0781;
174.4076;416.1732;231.8008;0.6935;0.2070;0.6863;-0.0727;
166.6828;415.2475;222.5911;0.6985;0.1889;0.6872;-0.0647;
161.5712;414.2872;216.4527;0.7014;0.1771;0.6878;-0.0595;
157.7705;413.4165;211.8747;0.7034;0.1682;0.6883;-0.0558;
151.4471;411.6058;204.2742;0.7063;0.1540;0.6892;-0.0499;
146.4286;409.9347;198.2081;0.7082;0.1426;0.6900;-0.0451;
142.7283;408.5003;193.7247;0.7096;0.1343;0.6904;-0.0418;
137.7238;406.4123;187.7480;0.7110;0.1234;0.6913;-0.0374;
131.5727;403.5221;180.3478;0.7124;0.1098;0.6924;-0.0319;
127.9499;401.5375;175.9648;0.7131;0.1019;0.6930;-0.0289;
121.9018;398.1041;168.7339;0.7139;0.0888;0.6941;-0.0238;
118.2876;395.8491;164.4216;0.7143;0.0812;0.6948;-0.0209;
109.9452;390.2699;154.5525;0.7144;0.0636;0.6967;-0.0142;
106.4096;387.6665;150.4034;0.7143;0.0562;0.6975;-0.0116;
101.7912;384.0739;144.9485;0.7140;0.0467;0.6985;-0.0080;
97.1449;380.2740;139.5602;0.7135;0.0370;0.6997;-0.0047;
92.5096;376.3377;134.2707;0.7127;0.0279;0.7009;-0.0014;
89.1296;373.2856;130.3758;0.7121;0.0210;0.7018;0.0010;
84.7421;369.2927;125.4155;0.7111;0.0122;0.7030;0.0043;
79.8149;364.7949;120.0177;0.7096;0.0028;0.7045;0.0079;
77.0245;362.0510;116.9253;0.7088;-0.0026;0.7054;0.0099;
75.7289;360.6438;115.5047;0.7084;-0.0052;0.7057;0.0106;
74.8966;359.5707;114.5639;0.7081;-0.0068;0.7060;0.0107;
74.7174;359.1818;114.3177;0.7081;-0.0074;0.7060;0.0105;
74.7324;359.0700;114.2374;0.7081;-0.0074;0.7060;0.0104;
74.7773;358.9026;113.8097;0.7081;-0.0075;0.7060;0.0103;
74.6837;358.9418;112.5811;0.7078;-0.0074;0.7063;0.0104;
74.5680;358.9974;110.3550;0.7077;-0.0074;0.7064;0.0105;
74.5755;358.9988;109.1596;0.7077;-0.0074;0.7064;0.0105;
74.5897;359.0140;107.5609;0.7077;-0.0074;0.7064;0.0105;
74.5791;359.0075;105.5291;0.7077;-0.0074;0.7064;0.0104;
74.5655;358.9986;103.9001;0.7077;-0.0073;0.7064;0.0104;
74.5986;359.0124;102.2779;0.7078;-0.0074;0.7063;0.0104;
74.6230;359.0612;101.0812;0.7078;-0.0074;0.7063;0.0105;
74.6190;359.0999;98.2691;0.7079;-0.0074;0.7062;0.0104;
74.6378;359.0609;96.6353;0.7079;-0.0073;0.7062;0.0103;
74.6684;359.0702;95.0158;0.7079;-0.0074;0.7062;0.0104;
74.6904;359.0984;93.4079;0.7079;-0.0073;0.7062;0.0104;
74.6700;359.1092;91.7957;0.7079;-0.0073;0.7062;0.0104;
74.6697;359.0751;90.1701;0.7080;-0.0073;0.7061;0.0103;
74.6601;359.0782;88.9525;0.7080;-0.0073;0.7061;0.0103;
74.6518;359.2491;86.2606;0.7079;-0.0072;0.7062;0.0106;
74.5941;359.3961;85.1590;0.7079;-0.0071;0.7062;0.0108;
74.6187;359.3392;84.5639;0.7081;-0.0071;0.7060;0.0107;
74.6890;359.2459;84.3872;0.7081;-0.0072;0.7060;0.0106;
74.7144;359.2019;84.3465;0.7081;-0.0073;0.7060;0.0105;
74.6600;359.2947;84.4751;0.7080;-0.0072;0.7061;0.0106;
74.6771;359.3362;84.9816;0.7079;-0.0072;0.7062;0.0105;
74.7682;359.1735;85.9926;0.7079;-0.0075;0.7062;0.0103;
74.8927;358.9608;88.1671;0.7081;-0.0076;0.7060;0.0099;
74.8748;358.9847;89.3862;0.7081;-0.0076;0.7060;0.0100;
74.8306;359.0368;91.4341;0.7081;-0.0076;0.7060;0.0101;
74.8394;359.0481;93.0756;0.7081;-0.0075;0.7060;0.0102;
74.8548;359.0509;94.7106;0.7081;-0.0075;0.7060;0.0102;
74.8362;359.0566;96.3628;0.7081;-0.0076;0.7060;0.0102;
74.7957;359.0867;98.0061;0.7081;-0.0075;0.7060;0.0103;
74.7971;359.0943;99.6497;0.7081;-0.0075;0.7060;0.0103;
74.8107;359.1067;101.2829;0.7081;-0.0074;0.7060;0.0103;
74.8125;359.1086;102.5124;0.7081;-0.0074;0.7060;0.0104;
74.7798;359.1277;104.1498;0.7080;-0.0074;0.7060;0.0104;
74.7326;359.1112;106.5796;0.7080;-0.0074;0.7061;0.0103;
74.7539;359.1108;108.2206;0.7081;-0.0074;0.7060;0.0104;
74.7758;359.1367;109.8412;0.7081;-0.0074;0.7060;0.0104;
74.7796;359.1202;111.8405;0.7081;-0.0074;0.7060;0.0104;
74.7921;358.9654;113.1576;0.7081;-0.0075;0.7060;0.0102;
74.7769;358.9520;113.8320;0.7081;-0.0075;0.7060;0.0102;
74.6981;359.1877;114.3430;0.7080;-0.0073;0.7061;0.0105;
74.8771;359.4965;114.5577;0.7081;-0.0069;0.7060;0.0106;
75.6094;360.5124;115.4560;0.7082;-0.0051;0.7059;0.0106;
77.4510;362.5832;117.6264;0.7087;-0.0013;0.7054;0.0095;
80.4799;365.4860;121.1269;0.7095;0.0048;0.7046;0.0069;
84.6561;369.2532;125.7126;0.7107;0.0128;0.7033;0.0037;
89.2843;373.4123;130.8179;0.7119;0.0218;0.7019;0.0004;
93.9567;377.6504;136.1264;0.7129;0.0312;0.7006;-0.0026;
102.0970;384.4181;145.5580;0.7139;0.0478;0.6985;-0.0085;
106.7779;388.0154;151.0356;0.7142;0.0575;0.6975;-0.0121;
110.3348;390.5546;155.2080;0.7143;0.0649;0.6966;-0.0149;
119.9733;396.9651;166.5776;0.7140;0.0852;0.6945;-0.0224;
124.7884;399.8818;172.3478;0.7135;0.0957;0.6936;-0.0264;
128.3858;401.8462;176.6843;0.7128;0.1034;0.6930;-0.0295;
133.3258;404.3881;182.5904;0.7119;0.1142;0.6921;-0.0337;
139.5076;407.2072;190.0235;0.7104;0.1277;0.6910;-0.0392;
144.5021;409.2423;196.0291;0.7088;0.1388;0.6902;-0.0437;
149.4815;411.0183;202.0696;0.7069;0.1501;0.6895;-0.0483;
159.6356;413.8562;214.2647;0.7023;0.1731;0.6881;-0.0580;
167.3112;415.3794;223.4550;0.6979;0.1909;0.6871;-0.0655;
176.3633;416.3442;234.2475;0.6919;0.2121;0.6861;-0.0749;
181.5374;416.5444;240.3724;0.6878;0.2245;0.6856;-0.0804;
186.7478;416.3737;246.5017;0.6836;0.2370;0.6850;-0.0862;
194.6265;415.6560;255.6700;0.6762;0.2562;0.6841;-0.0950;
199.8900;414.7828;261.7326;0.6708;0.2693;0.6836;-0.1011;
205.0479;413.6039;267.7175;0.6648;0.2825;0.6831;-0.1075;
211.6239;411.6279;275.1116;0.6569;0.2992;0.6824;-0.1157;
219.4565;408.5759;283.8168;0.6462;0.3197;0.6815;-0.1259;
223.3163;406.7718;288.0641;0.6403;0.3300;0.6811;-0.1312;
229.7172;403.2714;294.9928;0.6299;0.3475;0.6803;-0.1402;
234.7300;400.0530;300.3530;0.6209;0.3616;0.6796;-0.1477;
239.7384;396.4595;305.5765;0.6113;0.3759;0.6788;-0.1555;
244.6276;392.4879;310.5937;0.6011;0.3902;0.6780;-0.1635;
249.3616;388.1668;315.3965;0.5902;0.4048;0.6771;-0.1716;
257.3521;379.6426;323.2246;0.5695;0.4301;0.6752;-0.1865;
261.6786;374.2013;327.3280;0.5568;0.4446;0.6739;-0.1955;
265.7808;368.4766;331.1342;0.5432;0.4593;0.6724;-0.2045;
269.6517;362.3031;334.6029;0.5291;0.4737;0.6708;-0.2139;
273.2538;355.8195;337.7456;0.5142;0.4880;0.6690;-0.2235;
275.7045;350.7859;339.8606;0.5026;0.4987;0.6674;-0.2308;
278.7116;343.7735;342.3668;0.4866;0.5126;0.6652;-0.2407;
284.8089;323.8141;346.8638;0.4416;0.5479;0.6578;-0.2684;
286.6323;315.3332;347.3225;0.4240;0.5605;0.6540;-0.2799;
287.7629;308.9700;346.9444;0.4120;0.5686;0.6509;-0.2886;
288.7644;302.8519;345.9167;0.4020;0.5752;0.6477;-0.2969;
289.7234;296.7559;344.2254;0.3939;0.5803;0.6442;-0.3051;
290.4676;292.2780;342.4799;0.3892;0.5833;0.6415;-0.3111;
293.1680;279.2626;335.2004;0.3843;0.5864;0.6331;-0.3281;
294.7342;273.9412;331.1851;0.3866;0.5851;0.6294;-0.3347;
296.0147;270.0734;327.7723;0.3899;0.5830;0.6268;-0.3393;
298.4279;263.3224;321.4346;0.3981;0.5778;0.6223;-0.3471;
300.6025;257.8043;316.0692;0.4063;0.5722;0.6187;-0.3532;
302.9745;252.3573;310.6748;0.4148;0.5662;0.6153;-0.3588;
305.3271;246.8642;305.3385;0.4231;0.5601;0.6120;-0.3643;
309.5891;235.3705;295.0812;0.4376;0.5480;0.6060;-0.3755;
311.2116;230.8127;291.4562;0.4427;0.5435;0.6036;-0.3798;
313.2823;224.6425;286.7700;0.4487;0.5379;0.6006;-0.3855;
315.2719;218.3385;282.2564;0.4542;0.5324;0.5978;-0.3911;
317.2208;211.8048;277.9774;0.4593;0.5271;0.5947;-0.3968;
318.6269;206.8829;274.8706;0.4628;0.5234;0.5926;-0.4010;
320.4874;200.1072;270.9398;0.4670;0.5186;0.5896;-0.4066;
323.5369;188.0248;264.5170;0.4734;0.5107;0.5845;-0.4164;
324.8249;182.7139;261.9776;0.4758;0.5076;0.5823;-0.4206;
326.4190;175.5369;258.7441;0.4785;0.5038;0.5794;-0.4261;
328.6709;164.5558;254.3198;0.4821;0.4985;0.5749;-0.4342;
330.1081;157.1012;251.6450;0.4840;0.4952;0.5720;-0.4397;
331.1535;151.4888;249.7561;0.4853;0.4931;0.5697;-0.4436;
332.4294;143.9357;247.4233;0.4866;0.4905;0.5668;-0.4488;
333.7051;136.2828;245.3191;0.4878;0.4881;0.5637;-0.4540;
334.8410;128.5686;243.4215;0.4886;0.4860;0.5606;-0.4591;
335.8879;120.7942;241.7400;0.4891;0.4844;0.5575;-0.4640;
336.9289;112.9398;240.2897;0.4896;0.4830;0.5543;-0.4689;
337.8307;105.0461;239.0459;0.4897;0.4819;0.5510;-0.4737;
338.6965;97.1819;237.9788;0.4896;0.4811;0.5478;-0.4782;
339.4922;89.2104;237.1706;0.4895;0.4806;0.5444;-0.4828;
340.1978;81.2420;236.5595;0.4891;0.4804;0.5409;-0.4872;
341.1163;69.3270;236.0073;0.4883;0.4808;0.5357;-0.4933;
341.5520;61.7491;235.8182;0.4874;0.4814;0.5326;-0.4971;
341.9276;54.8243;235.8641;0.4866;0.4821;0.5294;-0.5004;
342.1729;49.0092;236.0481;0.4860;0.4830;0.5267;-0.5031;
342.4100;44.5386;236.3111;0.4856;0.4837;0.5245;-0.5051;
342.5213;42.1322;236.4889;0.4853;0.4842;0.5233;-0.5062;
342.6435;40.0879;236.6573;0.4851;0.4846;0.5222;-0.5071;
342.7535;39.0269;236.8282;0.4851;0.4849;0.5215;-0.5075;
342.8152;38.6134;236.9524;0.4852;0.4850;0.5211;-0.5077;
342.8513;38.4925;237.0331;0.4853;0.4851;0.5209;-0.5078;
342.8267;38.4608;236.9601;0.4852;0.4851;0.5209;-0.5078;
342.7982;38.4259;236.4566;0.4851;0.4851;0.5210;-0.5079;
342.8272;38.3528;234.7408;0.4851;0.4852;0.5209;-0.5079;
342.8262;38.3617;233.2048;0.4851;0.4853;0.5209;-0.5078;
342.8257;38.4036;231.9605;0.4850;0.4853;0.5209;-0.5078;
342.8190;38.3835;229.9586;0.4852;0.4853;0.5208;-0.5078;
342.7811;38.3738;228.3511;0.4852;0.4853;0.5208;-0.5078;
342.7602;38.4028;226.6923;0.4852;0.4853;0.5207;-0.5078;
342.7785;38.4547;225.0196;0.4852;0.4854;0.5208;-0.5076;
342.7698;38.4559;223.4004;0.4853;0.4853;0.5207;-0.5077;
342.7555;38.4156;221.0027;0.4855;0.4853;0.5206;-0.5077;
342.7111;38.4279;219.3711;0.4854;0.4853;0.5206;-0.5078;
342.7159;38.4514;218.1230;0.4854;0.4853;0.5207;-0.5077;
342.7061;38.4473;216.5090;0.4854;0.4852;0.5207;-0.5077;
342.6940;38.4577;214.0666;0.4854;0.4852;0.5208;-0.5078;
342.6401;38.4525;212.4571;0.4854;0.4852;0.5207;-0.5078;
342.6345;38.4750;210.8136;0.4854;0.4852;0.5208;-0.5078;
342.6373;38.4497;209.2102;0.4854;0.4851;0.5208;-0.5078;
342.6205;38.4493;207.6003;0.4853;0.4851;0.5208;-0.5078;
342.6126;38.4610;205.9715;0.4853;0.4850;0.5208;-0.5078;
342.6125;38.4928;204.3287;0.4853;0.4851;0.5209;-0.5078;
342.5668;38.4556;201.9365;0.4853;0.4851;0.5208;-0.5079;
342.5602;38.4394;200.3285;0.4853;0.4851;0.5208;-0.5079;
342.5548;38.4428;199.1159;0.4854;0.4850;0.5208;-0.5079;
342.5286;38.4835;197.0592;0.4853;0.4851;0.5208;-0.5078;
342.5365;38.4957;195.4346;0.4853;0.4851;0.5209;-0.5078;
342.5404;38.4544;193.8554;0.4853;0.4850;0.5209;-0.5078;
342.4876;38.4306;192.2666;0.4854;0.4850;0.5208;-0.5079;
342.4568;38.4491;190.6327;0.4854;0.4850;0.5208;-0.5079;
342.4872;38.4667;189.0502;0.4853;0.4851;0.5208;-0.5078;
342.5270;38.4532;188.1198;0.4854;0.4852;0.5207;-0.5078;
342.5165;38.4065;187.4073;0.4855;0.4850;0.5206;-0.5079;
342.4520;38.4475;187.0916;0.4854;0.4850;0.5208;-0.5079;
342.4638;38.4497;187.1134;0.4854;0.4850;0.5208;-0.5079;
342.5357;38.4820;187.4747;0.4854;0.4851;0.5208;-0.5078;
342.6381;38.6203;188.7444;0.4851;0.4854;0.5211;-0.5075;
342.6090;39.0429;193.4456;0.4845;0.4854;0.5220;-0.5071;
342.4941;39.3718;198.6527;0.4840;0.4854;0.5227;-0.5069;
342.2099;39.7037;205.2790;0.4834;0.4852;0.5234;-0.5070;
341.9312;40.4453;214.5755;0.4830;0.4848;0.5242;-0.5068;
341.7693;41.8822;221.8174;0.4833;0.4843;0.5250;-0.5063;
341.7358;44.7040;228.0364;0.4842;0.4836;0.5258;-0.5052;
341.8699;47.8699;231.6958;0.4853;0.4829;0.5268;-0.5039;
341.9892;55.4360;235.2413;0.4872;0.4822;0.5291;-0.5001;
341.6770;64.8882;236.2771;0.4882;0.4817;0.5332;-0.4953;
341.0010;73.1179;236.3447;0.4884;0.4814;0.5372;-0.4910;
339.9919;83.3866;236.6668;0.4885;0.4814;0.5420;-0.4856;
339.3071;91.3012;237.4008;0.4890;0.4816;0.5453;-0.4813;
338.3551;101.0615;238.6666;0.4894;0.4823;0.5491;-0.4758;
337.6802;106.9620;239.5332;0.4894;0.4830;0.5514;-0.4724;
335.9352;120.7763;241.9071;0.4889;0.4852;0.5571;-0.4639;
335.1574;126.6297;243.1467;0.4885;0.4864;0.5595;-0.4602;
333.9902;134.3053;245.0166;0.4877;0.4884;0.5625;-0.4552;
332.4789;143.8453;247.6390;0.4865;0.4912;0.5662;-0.4489;
331.2022;151.4246;249.9578;0.4851;0.4939;0.5691;-0.4436;
329.7866;158.9275;252.4683;0.4834;0.4967;0.5722;-0.4384;
328.7315;164.4884;254.5129;0.4819;0.4992;0.5744;-0.4343;
327.2178;171.8152;257.4160;0.4797;0.5026;0.5774;-0.4289;
325.1961;180.8432;261.3098;0.4763;0.5073;0.5811;-0.4221;
323.5295;187.9323;264.6707;0.4732;0.5115;0.5839;-0.4166;
321.8308;194.8959;268.2453;0.4698;0.5157;0.5869;-0.4110;
319.1056;205.1328;273.9699;0.4637;0.5227;0.5914;-0.4026;
317.1550;211.7997;278.0253;0.4591;0.5275;0.5944;-0.3970;
315.2129;218.3264;282.2834;0.4540;0.5328;0.5973;-0.3913;
312.6873;226.2520;287.8915;0.4470;0.5396;0.6012;-0.3842;
310.6086;232.3767;292.6081;0.4409;0.5452;0.6042;-0.3786;
308.4518;238.3850;297.4915;0.4342;0.5510;0.6073;-0.3729;
306.2497;244.2027;302.5725;0.4268;0.5571;0.6105;-0.3672;
304.0290;249.8097;307.8439;0.4190;0.5632;0.6136;-0.3616;
301.7411;255.2512;313.2818;0.4105;0.5695;0.6169;-0.3560;
299.4314;260.4827;318.9080;0.4014;0.5759;0.6201;-0.3503;
297.6834;264.2483;323.2489;0.3941;0.5807;0.6226;-0.3462;
295.3541;268.9686;329.0475;0.3840;0.5871;0.6258;-0.3410;
293.1752;273.1311;334.5686;0.3740;0.5932;0.6287;-0.3361;
291.2919;276.5887;339.3987;0.3650;0.5982;0.6315;-0.3320;
290.1001;278.6908;342.3966;0.3592;0.6013;0.6332;-0.3294;
288.6752;281.1080;346.0805;0.3521;0.6050;0.6353;-0.3263;
288.0211;282.2582;347.8736;0.3486;0.6068;0.6363;-0.3247;
287.7482;282.7691;348.6393;0.3471;0.6075;0.6368;-0.3240;
287.5714;283.1390;349.0720;0.3463;0.6078;0.6372;-0.3234;
287.4630;283.3515;349.1830;0.3462;0.6078;0.6375;-0.3231;
287.3768;283.5432;349.2014;0.3465;0.6075;0.6377;-0.3228;
287.2188;284.3472;349.2059;0.3487;0.6063;0.6382;-0.3217;
286.9042;287.0804;349.1129;0.3570;0.6025;0.6391;-0.3179;
286.5298;291.1500;348.8715;0.3696;0.5967;0.6403;-0.3120;
285.9990;296.9076;348.3473;0.3874;0.5886;0.6414;-0.3034;
284.9727;303.7607;347.3787;0.4088;0.5780;0.6425;-0.2930;
281.8527;315.0182;344.7053;0.4416;0.5594;0.6449;-0.2759;
278.0004;324.0343;341.4330;0.4675;0.5424;0.6469;-0.2620;
275.2385;329.1713;339.0087;0.4824;0.5317;0.6482;-0.2538;
268.6075;339.9594;332.5786;0.5153;0.5067;0.6498;-0.2355;
264.4901;345.4684;328.3319;0.5327;0.4923;0.6505;-0.2253;
260.0630;350.5412;323.6873;0.5490;0.4777;0.6511;-0.2154;
251.8831;358.1606;314.8011;0.5751;0.4521;0.6521;-0.1989;
248.3512;360.9463;310.7891;0.5855;0.4412;0.6524;-0.1922;
243.5033;364.3022;305.1970;0.5983;0.4269;0.6528;-0.1833;
237.3673;367.8177;297.9923;0.6132;0.4091;0.6533;-0.1727;
232.4825;370.1581;292.0564;0.6242;0.3950;0.6537;-0.1645;
228.8153;371.5556;287.5573;0.6321;0.3845;0.6538;-0.1587;
222.6209;373.5088;279.8620;0.6439;0.3674;0.6544;-0.1490;
213.9670;375.1278;268.9036;0.6588;0.3437;0.6552;-0.1362;
210.2455;375.4955;264.1664;0.6645;0.3338;0.6557;-0.1309;
205.3775;375.6176;257.8198;0.6717;0.3206;0.6562;-0.1243;
199.2411;375.4002;249.8705;0.6798;0.3046;0.6570;-0.1160;
193.1586;374.5663;241.9052;0.6871;0.2888;0.6579;-0.1082;
188.3962;373.5695;235.5691;0.6924;0.2763;0.6587;-0.1021;
183.5871;372.2778;229.2346;0.6971;0.2641;0.6595;-0.0963;
176.5043;369.8024;219.8341;0.7035;0.2460;0.6609;-0.0879;
172.9959;368.3581;215.1763;0.7063;0.2372;0.6617;-0.0839;
168.3040;366.1876;209.0039;0.7096;0.2257;0.6628;-0.0787;
160.2798;361.7529;198.3775;0.7147;0.2058;0.6648;-0.0700;
156.8660;359.6353;193.8875;0.7165;0.1974;0.6658;-0.0664;
152.3368;356.6634;187.9340;0.7185;0.1865;0.6672;-0.0616;
146.7661;352.5516;180.6941;0.7207;0.1732;0.6689;-0.0562;
141.2609;348.0900;173.5537;0.7224;0.1600;0.6707;-0.0510;
138.0026;345.3285;169.3675;0.7233;0.1523;0.6719;-0.0478;
133.6308;341.4051;163.8620;0.7241;0.1422;0.6735;-0.0440;
127.2222;335.1686;155.7745;0.7248;0.1273;0.6760;-0.0383;
122.9013;330.8368;150.5266;0.7249;0.1177;0.6779;-0.0348;
117.7235;325.1179;144.1542;0.7248;0.1058;0.6800;-0.0305;
111.4573;317.9526;136.7415;0.7241;0.0919;0.6830;-0.0257;
107.3596;312.9550;131.9612;0.7235;0.0829;0.6850;-0.0227;
104.3288;309.1299;128.4554;0.7228;0.0764;0.6865;-0.0205;
99.2208;302.5732;122.7643;0.7214;0.0655;0.6892;-0.0171;
95.2228;297.1487;118.3864;0.7202;0.0571;0.6913;-0.0145;
91.2487;291.6421;114.1226;0.7187;0.0488;0.6935;-0.0119;
87.2829;285.9918;109.9981;0.7170;0.0406;0.6958;-0.0096;
81.6527;277.7433;104.3004;0.7143;0.0294;0.6992;-0.0062;
78.4382;273.1034;101.1656;0.7125;0.0234;0.7012;-0.0041;
76.1587;269.6375;99.0442;0.7113;0.0190;0.7026;-0.0029;
74.9456;267.6038;97.9538;0.7107;0.0165;0.7033;-0.0026;
74.5589;266.6180;97.5377;0.7106;0.0154;0.7035;-0.0029;
74.4990;266.4887;97.4770;0.7105;0.0153;0.7036;-0.0030;
74.5213;266.3806;97.1058;0.7104;0.0153;0.7036;-0.0031;
74.4817;266.4048;96.4704;0.7103;0.0154;0.7037;-0.0030;
74.3407;266.4970;94.0525;0.7101;0.0155;0.7039;-0.0029;
74.3266;266.5105;92.4553;0.7100;0.0155;0.7040;-0.0029;
74.3340;266.4675;90.4471;0.7101;0.0154;0.7040;-0.0030;
74.3182;266.4823;88.0113;0.7101;0.0154;0.7039;-0.0029;
74.3715;266.5083;86.4062;0.7102;0.0154;0.7038;-0.0029;
74.3953;266.5196;84.7804;0.7102;0.0154;0.7038;-0.0030;
74.3908;266.5248;83.1694;0.7103;0.0154;0.7037;-0.0030;
74.3735;266.5198;81.5469;0.7102;0.0154;0.7038;-0.0030;
74.4004;266.5175;79.9275;0.7102;0.0154;0.7038;-0.0031;
74.4534;266.5238;78.3116;0.7103;0.0154;0.7037;-0.0031;
74.4149;266.5635;75.8892;0.7103;0.0154;0.7037;-0.0030;
74.4010;266.5454;74.2691;0.7103;0.0154;0.7037;-0.0030;
74.4420;266.5215;72.6533;0.7104;0.0154;0.7037;-0.0031;
74.4639;266.5492;70.6387;0.7104;0.0154;0.7037;-0.0031;
74.4190;266.6761;69.1852;0.7103;0.0155;0.7037;-0.0029;
74.3884;266.7520;68.3467;0.7103;0.0156;0.7037;-0.0028;
74.4355;266.7195;67.7592;0.7105;0.0156;0.7035;-0.0028;
74.4993;266.5938;67.5491;0.7105;0.0155;0.7035;-0.0030;
74.4962;266.5950;67.5474;0.7105;0.0155;0.7036;-0.0030;
74.4648;266.6986;67.7128;0.7104;0.0155;0.7036;-0.0029;
74.4878;266.6925;68.3020;0.7102;0.0154;0.7039;-0.0030;
74.5359;266.5938;69.4494;0.7101;0.0152;0.7039;-0.0031;
74.6021;266.4910;70.5706;0.7102;0.0151;0.7038;-0.0033;
74.6320;266.5255;73.3706;0.7103;0.0150;0.7037;-0.0032;
74.6337;266.5456;75.0180;0.7104;0.0151;0.7036;-0.0031;
74.6368;266.5418;76.2543;0.7104;0.0151;0.7036;-0.0031;
74.6135;266.5275;78.2953;0.7104;0.0152;0.7036;-0.0031;
74.5786;266.5444;79.9574;0.7104;0.0152;0.7036;-0.0031;
74.5837;266.5643;81.5898;0.7104;0.0153;0.7036;-0.0030;
74.6005;266.5608;82.8339;0.7105;0.0153;0.7035;-0.0030;
74.5732;266.5568;85.7029;0.7105;0.0153;0.7035;-0.0030;
74.5490;266.5848;87.3348;0.7105;0.0154;0.7035;-0.0030;
74.5416;266.5692;88.5490;0.7105;0.0154;0.7036;-0.0030;
74.5533;266.5616;90.1839;0.7105;0.0154;0.7036;-0.0030;
74.5118;266.5591;92.6203;0.7104;0.0154;0.7036;-0.0030;
74.5161;266.5802;94.2404;0.7104;0.0154;0.7036;-0.0030;
74.5435;266.5304;95.3887;0.7105;0.0154;0.7036;-0.0030;
74.6266;266.4038;96.6308;0.7106;0.0152;0.7034;-0.0031;
74.5993;266.4330;97.3022;0.7106;0.0153;0.7035;-0.0031;
74.5458;266.4995;97.5242;0.7105;0.0154;0.7035;-0.0031;
74.4980;266.5617;97.5581;0.7104;0.0154;0.7036;-0.0030;
74.5024;266.5491;97.5330;0.7104;0.0154;0.7036;-0.0030;
74.5227;266.4706;97.3432;0.7104;0.0154;0.7036;-0.0031;
74.4804;266.4951;96.6085;0.7102;0.0155;0.7038;-0.0031;
74.3753;266.6129;94.2267;0.7101;0.0156;0.7040;-0.0029;
74.3206;266.6454;92.6173;0.7099;0.0156;0.7041;-0.0029;
74.3256;266.6201;91.3960;0.7099;0.0156;0.7041;-0.0029;
74.3604;266.6205;89.3726;0.7100;0.0156;0.7040;-0.0029;
74.3525;266.6165;87.7301;0.7101;0.0155;0.7040;-0.0029;
74.3671;266.6154;86.1065;0.7101;0.0155;0.7039;-0.0029;
74.3722;266.6189;84.4677;0.7102;0.0155;0.7039;-0.0029;
74.4220;266.6151;82.0392;0.7103;0.0155;0.7038;-0.0030;
74.4291;266.6013;80.4078;0.7102;0.0155;0.7038;-0.0030;
74.4274;266.5939;78.7778;0.7102;0.0154;0.7038;-0.0030;
74.4245;266.5958;77.1539;0.7103;0.0154;0.7038;-0.0030;
74.4229;266.6090;75.5300;0.7103;0.0154;0.7037;-0.0030;
74.4432;266.5929;73.9067;0.7104;0.0154;0.7037;-0.0030;
74.4624;266.5832;72.6876;0.7104;0.0154;0.7037;-0.0031;
74.4566;266.5884;70.6660;0.7103;0.0154;0.7037;-0.0031;
74.4128;266.6947;69.1957;0.7103;0.0156;0.7037;-0.0029;
74.4017;266.7693;68.3600;0.7104;0.0156;0.7037;-0.0028;
74.4529;266.7251;67.7645;0.7105;0.0156;0.7035;-0.0028;
74.5034;266.5992;67.5473;0.7105;0.0155;0.7035;-0.0030;
74.4707;266.6737;67.6369;0.7104;0.0155;0.7036;-0.0029;
74.4748;266.7202;68.0940;0.7102;0.0154;0.7038;-0.0030;
74.5031;266.6632;68.7949;0.7101;0.0152;0.7040;-0.0031;
74.5746;266.4842;70.5689;0.7102;0.0151;0.7038;-0.0033;
74.6209;266.4759;72.1519;0.7103;0.0150;0.7037;-0.0032;
74.6217;266.5102;73.3600;0.7103;0.0150;0.7037;-0.0032;
74.6180;266.5312;75.0180;0.7104;0.0151;0.7036;-0.0031;
74.6003;266.5160;77.0681;0.7104;0.0151;0.7036;-0.0031;
74.5852;266.5106;78.7122;0.7104;0.0152;0.7036;-0.0031;
74.5660;266.5381;79.9568;0.7104;0.0152;0.7036;-0.0031;
74.5800;266.5653;81.5929;0.7104;0.0153;0.7036;-0.0030;
74.5554;266.5650;84.4740;0.7105;0.0153;0.7035;-0.0030;
74.5422;266.5592;85.7057;0.7105;0.0153;0.7035;-0.0030;
74.5336;266.5862;87.3368;0.7105;0.0154;0.7036;-0.0030;
74.5449;266.5641;89.3690;0.7105;0.0154;0.7035;-0.0030;
74.5306;266.5376;90.9988;0.7105;0.0154;0.7036;-0.0030;
74.4913;266.5473;92.2110;0.7104;0.0154;0.7036;-0.0030;
74.4860;266.5775;93.8371;0.7104;0.0154;0.7036;-0.0030;
74.5919;266.4630;96.0983;0.7105;0.0153;0.7035;-0.0031;
74.5746;266.4326;97.0757;0.7105;0.0153;0.7035;-0.0032;
74.4668;266.5858;97.5521;0.7104;0.0154;0.7037;-0.0030;
74.6259;266.9781;97.6947;0.7105;0.0159;0.7036;-0.0028;
75.0278;267.8452;98.0865;0.7106;0.0169;0.7034;-0.0026;
76.8306;271.0466;99.9236;0.7114;0.0209;0.7024;-0.0033;
82.1750;278.8394;105.2374;0.7144;0.0312;0.6990;-0.0070;
85.1277;283.0773;108.1451;0.7159;0.0369;0.6972;-0.0088;
91.1621;291.7693;114.2909;0.7185;0.0491;0.6937;-0.0121;
98.2008;301.4749;121.8971;0.7210;0.0639;0.6897;-0.0165;
102.2977;306.7061;126.4060;0.7222;0.0726;0.6876;-0.0194;
106.3562;311.8608;131.0324;0.7232;0.0813;0.6855;-0.0224;
112.6040;319.4116;138.2748;0.7243;0.0949;0.6824;-0.0269;
116.7768;324.1755;143.2185;0.7246;0.1043;0.6805;-0.0301;
120.9580;328.7621;148.3096;0.7248;0.1137;0.6786;-0.0336;
126.2599;334.2901;154.8090;0.7247;0.1257;0.6764;-0.0380;
130.5685;338.5538;160.1475;0.7243;0.1356;0.6747;-0.0416;
134.8980;342.5896;165.6324;0.7237;0.1457;0.6730;-0.0455;
140.3651;347.3664;172.5579;0.7225;0.1584;0.6710;-0.0505;
150.3000;355.2221;185.4759;0.7192;0.1821;0.6678;-0.0601;
154.8673;358.2845;191.3796;0.7173;0.1931;0.6663;-0.0648;
163.9799;363.8889;203.3922;0.7123;0.2153;0.6639;-0.0743;
168.5686;366.2782;209.5116;0.7093;0.2269;0.6627;-0.0794;
172.0733;367.9424;214.1272;0.7067;0.2356;0.6619;-0.0833;
177.9661;370.3145;221.9273;0.7021;0.2503;0.6605;-0.0901;
181.5501;371.5700;226.6511;0.6990;0.2593;0.6598;-0.0942;
186.2842;373.0285;232.9271;0.6943;0.2715;0.6590;-0.0999;
191.1023;374.1415;239.3100;0.6893;0.2838;0.6581;-0.1059;
199.6053;375.3439;250.4229;0.6792;0.3059;0.6569;-0.1168;
206.9897;375.5926;259.9892;0.6693;0.3254;0.6558;-0.1267;
214.3661;375.0201;269.4768;0.6580;0.3452;0.6551;-0.1372;
219.3076;374.2029;275.7362;0.6496;0.3587;0.6546;-0.1444;
223.0371;373.3255;280.4023;0.6429;0.3689;0.6543;-0.1500;
229.2410;371.3737;288.0743;0.6309;0.3861;0.6537;-0.1597;
237.8549;367.5337;298.4958;0.6121;0.4106;0.6531;-0.1739;
242.7061;364.7634;304.2310;0.6001;0.4248;0.6528;-0.1823;
246.2613;362.3416;308.4016;0.5906;0.4356;0.6525;-0.1889;
254.5199;355.7646;317.7114;0.5665;0.4608;0.6518;-0.2048;
260.1567;350.1406;323.8384;0.5474;0.4788;0.6512;-0.2167;
264.4448;345.1117;328.3839;0.5311;0.4932;0.6506;-0.2267;
268.4937;339.6466;332.5454;0.5136;0.5075;0.6501;-0.2367;
272.3251;333.6494;336.3248;0.4952;0.5217;0.6492;-0.2472;
276.4971;325.7542;340.2525;0.4714;0.5385;0.6481;-0.2603;
278.7496;320.9401;342.1022;0.4576;0.5478;0.6471;-0.2680;
282.8369;310.2202;344.3646;0.4292;0.5651;0.6447;-0.2843;
284.7024;304.6751;344.5713;0.4165;0.5723;0.6430;-0.2923;
285.9106;300.6792;344.2617;0.4085;0.5768;0.6416;-0.2981;
287.8962;294.1827;342.9903;0.3976;0.5823;0.6392;-0.3071;
289.3942;288.7769;341.1948;0.3909;0.5855;0.6368;-0.3145;
290.5521;284.6446;339.3782;0.3873;0.5870;0.6348;-0.3199;
292.2690;279.1418;336.4878;0.3853;0.5876;0.6320;-0.3270;
295.6256;269.7497;330.2708;0.3880;0.5852;0.6265;-0.3383;
298.2197;262.9884;324.7263;0.3944;0.5807;0.6227;-0.3458;
300.4731;257.2373;319.9118;0.4018;0.5758;0.6191;-0.3518;
304.0891;248.3770;312.5198;0.4143;0.5671;0.6138;-0.3607;
306.4514;242.4673;307.6833;0.4223;0.5611;0.6104;-0.3663;
308.1721;237.9231;304.1779;0.4279;0.5567;0.6080;-0.3705;
310.9608;230.1080;298.5570;0.4367;0.5495;0.6039;-0.3777;
313.1656;223.6713;294.3038;0.4431;0.5438;0.6007;-0.3834;
314.7836;218.7739;291.2376;0.4475;0.5398;0.5983;-0.3877;
316.8889;212.0992;287.3265;0.4531;0.5346;0.5951;-0.3934;
318.9178;205.2917;283.6164;0.4582;0.5293;0.5921;-0.3991;
320.8499;198.3709;280.1203;0.4627;0.5245;0.5890;-0.4048;
322.7651;191.2671;276.8621;0.4669;0.5200;0.5858;-0.4105;
324.5627;184.0719;273.7948;0.4706;0.5154;0.5829;-0.4162;
327.1385;173.1047;269.6058;0.4754;0.5093;0.5782;-0.4246;
328.3494;167.4986;267.7105;0.4775;0.5064;0.5760;-0.4288;
330.2442;158.1133;264.8000;0.4805;0.5020;0.5721;-0.4357;
331.6896;150.4973;262.7164;0.4826;0.4988;0.5690;-0.4411;
333.0612;142.8129;260.8566;0.4843;0.4958;0.5660;-0.4465;
334.0175;137.0130;259.6075;0.4854;0.4937;0.5636;-0.4505;
335.2524;129.2162;258.1366;0.4866;0.4913;0.5604;-0.4558;
336.6645;119.4114;256.6006;0.4878;0.4886;0.5565;-0.4622;
337.6777;111.5471;255.6049;0.4883;0.4869;0.5534;-0.4672;
338.3937;105.5912;255.0224;0.4886;0.4857;0.5509;-0.4710;
339.2659;97.6279;254.4400;0.4889;0.4846;0.5475;-0.4758;
340.5623;83.6562;253.9422;0.4888;0.4831;0.5416;-0.4841;
341.1789;75.6577;253.9706;0.4884;0.4827;0.5382;-0.4886;
341.5580;69.7173;254.0935;0.4880;0.4826;0.5357;-0.4919;
342.1455;58.4806;254.5909;0.4870;0.4828;0.5309;-0.4978;
342.4124;52.0028;255.1179;0.4863;0.4832;0.5281;-0.5012;
342.5987;46.7496;255.6916;0.4858;0.4838;0.5255;-0.5038;
342.7089;42.9506;256.1543;0.4854;0.4842;0.5237;-0.5057;
342.8886;39.7461;256.6567;0.4851;0.4847;0.5220;-0.5072;
342.9419;38.8846;256.8478;0.4851;0.4850;0.5214;-0.5076;
342.9770;38.6090;256.9572;0.4852;0.4850;0.5211;-0.5077;
343.0110;38.4819;257.0351;0.4853;0.4851;0.5209;-0.5078;
343.0106;38.4424;257.0345;0.4853;0.4851;0.5209;-0.5078;
343.0049;38.4190;256.9493;0.4852;0.4851;0.5209;-0.5079;
343.0260;38.3785;256.7674;0.4852;0.4851;0.5209;-0.5078;
343.0361;38.3682;256.5778;0.4852;0.4852;0.5209;-0.5078;
343.0125;38.3866;256.3975;0.4851;0.4852;0.5209;-0.5078;
342.9758;38.4265;256.0657;0.4851;0.4852;0.5209;-0.5078;
342.9786;38.4309;255.8982;0.4851;0.4852;0.5209;-0.5078;
342.9852;38.4292;255.7793;0.4851;0.4852;0.5209;-0.5078;
342.9904;38.4246;255.6185;0.4852;0.4852;0.5209;-0.5078;
342.9946;38.4224;255.4543;0.4852;0.4852;0.5209;-0.5078;
343.0018;38.4356;255.2303;0.4852;0.4852;0.5209;-0.5078;
343.0151;38.4524;255.0450;0.4852;0.4852;0.5209;-0.5078;
343.0203;38.4614;254.7858;0.4852;0.4852;0.5209;-0.5078;
343.0219;38.4684;254.5808;0.4852;0.4851;0.5209;-0.5078;
343.0210;38.4693;254.4588;0.4852;0.4851;0.5209;-0.5078;
343.0060;38.4626;254.1801;0.4853;0.4851;0.5209;-0.5078;
342.9940;38.4586;254.0234;0.4853;0.4851;0.5209;-0.5078;
342.9847;38.4576;253.8641;0.4853;0.4851;0.5208;-0.5078;
342.9419;38.4675;253.5744;0.4852;0.4851;0.5209;-0.5079;
342.9338;38.4646;253.4549;0.4852;0.4851;0.5208;-0.5079;
342.9423;38.4598;253.2986;0.4852;0.4851;0.5208;-0.5079;
342.9588;38.4436;253.1095;0.4853;0.4851;0.5208;-0.5079;
342.9583;38.4477;252.9402;0.4853;0.4851;0.5208;-0.5079;
342.9651;38.4572;252.8077;0.4853;0.4851;0.5208;-0.5079;
342.9854;38.4741;252.5840;0.4853;0.4851;0.5209;-0.5078;
342.9974;38.4649;252.3082;0.4853;0.4850;0.5209;-0.5078;
342.9951;38.4647;252.1901;0.4853;0.4850;0.5209;-0.5078;
342.9981;38.4573;252.0362;0.4853;0.4850;0.5209;-0.5078;
342.9819;38.4484;251.7610;0.4853;0.4850;0.5209;-0.5079;
342.9552;38.4495;251.5985;0.4853;0.4850;0.5209;-0.5079;
342.9340;38.4522;251.4344;0.4853;0.4850;0.5209;-0.5079;
342.9216;38.4458;251.2806;0.4853;0.4850;0.5209;-0.5079;
342.9114;38.4309;251.1393;0.4853;0.4850;0.5208;-0.5080;
342.9178;38.4137;250.9625;0.4853;0.4850;0.5208;-0.5080;
342.9270;38.4157;250.8427;0.4853;0.4850;0.5208;-0.5080;
342.9471;38.4372;250.5336;0.4853;0.4850;0.5208;-0.5079;
342.9560;38.4469;250.3954;0.4853;0.4850;0.5208;-0.5079;
342.9634;38.4668;250.1682;0.4853;0.4850;0.5209;-0.5078;
342.9667;38.4808;249.9088;0.4853;0.4851;0.5209;-0.5078;
342.9651;38.4762;249.7153;0.4853;0.4851;0.5209;-0.5078;
342.9663;38.4594;249.5712;0.4853;0.4851;0.5208;-0.5078;
342.9690;38.4401;249.3519;0.4854;0.4850;0.5208;-0.5079;
342.9611;38.4408;249.1900;0.4854;0.4850;0.5208;-0.5079;
342.9404;38.4464;249.0244;0.4853;0.4850;0.5208;-0.5079;
342.9068;38.4614;248.8079;0.4853;0.4850;0.5209;-0.5079;
342.8920;38.4691;248.6786;0.4852;0.4850;0.5209;-0.5079;
342.8849;38.4732;248.5144;0.4852;0.4850;0.5209;-0.5079;
342.8992;38.4601;248.3661;0.4853;0.4850;0.5209;-0.5079;
342.9536;38.4373;248.1068;0.4853;0.4850;0.5208;-0.5079;
342.9660;38.4346;247.9455;0.4853;0.4850;0.5208;-0.5079;
342.9594;38.4490;247.7641;0.4853;0.4850;0.5209;-0.5078;
342.9514;38.4831;247.4840;0.4853;0.4851;0.5209;-0.5078;
342.9496;38.5036;247.3037;0.4853;0.4851;0.5210;-0.5078;
342.9506;38.5015;247.1428;0.4853;0.4851;0.5210;-0.5078;
342.9572;38.4865;246.9993;0.4853;0.4851;0.5209;-0.5078;
342.9538;38.4618;246.8282;0.4853;0.4851;0.5209;-0.5078;
342.9462;38.4487;246.6836;0.4853;0.4851;0.5208;-0.5078;
342.9365;38.4471;246.5675;0.4853;0.4851;0.5208;-0.5079;
342.9176;38.4630;246.3492;0.4853;0.4851;0.5208;-0.5079;
342.9085;38.4712;246.2163;0.4853;0.4851;0.5209;-0.5079;
342.9025;38.4827;245.9945;0.4853;0.4851;0.5209;-0.5078;
342.9137;38.4864;245.8232;0.4853;0.4851;0.5209;-0.5078;
342.9314;38.4767;245.5569;0.4853;0.4851;0.5209;-0.5078;
342.9449;38.4646;245.4494;0.4853;0.4851;0.5209;-0.5078;
342.9584;38.4504;245.3021;0.4854;0.4850;0.5208;-0.5078;
342.9529;38.4483;245.0231;0.4854;0.4850;0.5209;-0.5078;
342.9350;38.4610;244.8452;0.4853;0.4850;0.5209;-0.5078;
342.9179;38.4703;244.6674;0.4853;0.4850;0.5209;-0.5078;
342.8994;38.4727;244.5022;0.4853;0.4850;0.5209;-0.5078;
342.9020;38.4644;244.3141;0.4853;0.4850;0.5209;-0.5079;
342.9073;38.4532;244.1650;0.4853;0.4850;0.5209;-0.5079;
342.9108;38.4466;244.0515;0.4853;0.4850;0.5208;-0.5079;
342.9125;38.4513;243.7677;0.4853;0.4850;0.5208;-0.5079;
342.9059;38.4595;243.5995;0.4853;0.4850;0.5209;-0.5079;
342.8933;38.4712;243.4254;0.4853;0.4850;0.5209;-0.5079;
342.8839;38.4830;243.2518;0.4853;0.4850;0.5209;-0.5079;
342.8885;38.4751;243.0969;0.4853;0.4850;0.5209;-0.5079;
342.8884;38.4569;242.9118;0.4853;0.4850;0.5209;-0.5079;
342.8883;38.4492;242.7988;0.4853;0.4850;0.5208;-0.5079;
342.8870;38.4574;242.5103;0.4853;0.4850;0.5208;-0.5079;
342.8837;38.4569;242.3907;0.4853;0.4850;0.5208;-0.5079;
342.8804;38.4533;242.1931;0.4853;0.4850;0.5208;-0.5079;
342.8857;38.4527;242.0318;0.4853;0.4850;0.5208;-0.5079;
342.8847;38.4592;241.8644;0.4853;0.4850;0.5208;-0.5079;
342.8810;38.4628;241.7007;0.4853;0.4850;0.5208;-0.5079;
342.8865;38.4588;241.5482;0.4853;0.4850;0.5208;-0.5079;
342.8888;38.4522;241.3956;0.4853;0.4850;0.5208;-0.5079;
342.8740;38.4535;241.2341;0.4853;0.4850;0.5208;-0.5079;
342.8575;38.4526;241.0750;0.4853;0.4850;0.5208;-0.5079;
342.8494;38.4509;240.9141;0.4853;0.4850;0.5208;-0.5079;
342.8504;38.4423;240.6338;0.4853;0.4850;0.5208;-0.5079;
342.8567;38.4447;240.5085;0.4853;0.4850;0.5209;-0.5079;
342.8676;38.4435;240.3456;0.4853;0.4850;0.5209;-0.5079;
342.8771;38.4435;240.1451;0.4853;0.4850;0.5208;-0.5079;
342.8778;38.4583;239.9716;0.4853;0.4850;0.5209;-0.5079;
342.8665;38.4764;239.7497;0.4853;0.4850;0.5209;-0.5079;
342.8595;38.4813;239.6209;0.4853;0.4850;0.5209;-0.5079;
342.8805;38.4732;239.3458;0.4853;0.4850;0.5209;-0.5078;
342.8892;38.4682;239.1886;0.4854;0.4850;0.5208;-0.5078;
342.8878;38.4618;239.0398;0.4854;0.4851;0.5208;-0.5078;
342.8741;38.4506;238.7731;0.4854;0.4851;0.5208;-0.5079;
342.8577;38.4519;238.6101;0.4854;0.4851;0.5208;-0.5079;
342.8401;38.4546;238.4837;0.4853;0.4851;0.5208;-0.5079;
342.8254;38.4630;238.2669;0.4853;0.4851;0.5208;-0.5079;
342.8211;38.4704;238.0973;0.4853;0.4850;0.5209;-0.5079;
342.8282;38.4682;237.9367;0.4853;0.4850;0.5209;-0.5079;
342.8374;38.4636;237.7797;0.4853;0.4850;0.5209;-0.5079;
342.8823;38.4539;237.5065;0.4853;0.4850;0.5209;-0.5078;
342.9076;38.4584;237.3424;0.4854;0.4850;0.5209;-0.5078;
342.9135;38.4672;237.2096;0.4854;0.4850;0.5209;-0.5078;
342.9070;38.4765;237.0349;0.4853;0.4850;0.5209;-0.5078;
342.8803;38.4825;236.8234;0.4853;0.4850;0.5209;-0.5078;
342.8633;38.4877;236.6974;0.4853;0.4850;0.5209;-0.5078;
342.8427;38.4888;236.5323;0.4853;0.4850;0.5209;-0.5078;
342.8335;38.4785;236.3043;0.4853;0.4850;0.5209;-0.5078;
342.8471;38.4624;236.1264;0.4853;0.4850;0.5209;-0.5078;
342.8528;38.4549;236.0186;0.4853;0.4850;0.5209;-0.5079;
342.8517;38.4511;235.8246;0.4853;0.4850;0.5209;-0.5079;
342.8327;38.4676;235.6469;0.4853;0.4850;0.5209;-0.5079;
342.8226;38.4782;235.4701;0.4853;0.4850;0.5209;-0.5079;
342.8196;38.4797;235.3425;0.4853;0.4851;0.5209;-0.5079;
342.8261;38.4904;235.0455;0.4853;0.4851;0.5209;-0.5078;
342.8479;38.4868;234.8876;0.4853;0.4851;0.5209;-0.5078;
342.8614;38.4812;234.6976;0.4853;0.4851;0.5209;-0.5078;
342.8705;38.4518;234.4469;0.4854;0.4851;0.5208;-0.5078;
342.8673;38.4488;234.3306;0.4854;0.4851;0.5208;-0.5078;
342.8516;38.4527;234.1658;0.4854;0.4851;0.5208;-0.5079;
342.8167;38.4606;233.9543;0.4853;0.4850;0.5208;-0.5079;
342.7885;38.4699;233.7843;0.4853;0.4850;0.5209;-0.5079;
342.7779;38.4714;233.6605;0.4853;0.4850;0.5209;-0.5079;
342.7709;38.4720;233.5010;0.4853;0.4850;0.5209;-0.5079;
342.7833;38.4591;233.3167;0.4853;0.4850;0.5209;-0.5079;
342.8041;38.4442;233.1703;0.4853;0.4850;0.5208;-0.5079;
342.8344;38.4386;233.0135;0.4854;0.4850;0.5208;-0.5079;
342.8573;38.4362;232.8478;0.4854;0.4850;0.5208;-0.5079;
342.8623;38.4414;232.5947;0.4854;0.4850;0.5208;-0.5079;
342.8481;38.4574;232.3712;0.4854;0.4850;0.5209;-0.5078;
342.8308;38.4779;232.1915;0.4853;0.4850;0.5209;-0.5078;
342.8062;38.4853;231.9484;0.4853;0.4850;0.5209;-0.5079;
342.7998;38.4676;231.8060;0.4853;0.4850;0.5209;-0.5079;
342.7917;38.4524;231.6656;0.4853;0.4850;0.5208;-0.5079;
342.7743;38.4376;231.4784;0.4853;0.4850;0.5208;-0.5079;
342.7558;38.4349;231.3215;0.4853;0.4850;0.5208;-0.5080;
342.7477;38.4391;231.1603;0.4853;0.4850;0.5208;-0.5080;
342.7499;38.4497;230.9897;0.4853;0.4850;0.5208;-0.5079;
342.7733;38.4792;230.6766;0.4853;0.4851;0.5208;-0.5079;
342.7957;38.4815;230.5502;0.4853;0.4851;0.5208;-0.5078;
342.8222;38.4827;230.3870;0.4853;0.4851;0.5208;-0.5078;
342.8323;38.4791;230.2293;0.4854;0.4851;0.5208;-0.5078;
342.8262;38.4814;230.0667;0.4853;0.4851;0.5208;-0.5078;
342.8191;38.4761;229.9056;0.4853;0.4851;0.5208;-0.5078;
342.8143;38.4642;229.7503;0.4853;0.4851;0.5208;-0.5078;
342.7937;38.4573;229.4789;0.4853;0.4851;0.5208;-0.5078;
342.7797;38.4598;229.3567;0.4853;0.4851;0.5208;-0.5079;
342.7556;38.4613;229.1920;0.4853;0.4851;0.5209;-0.5079;
342.7508;38.4540;229.0376;0.4853;0.4851;0.5208;-0.5079;
342.7573;38.4422;228.8900;0.4853;0.4850;0.5208;-0.5079;
342.7682;38.4420;228.7278;0.4853;0.4850;0.5208;-0.5079;
342.7738;38.4523;228.5506;0.4853;0.4850;0.5208;-0.5079;
342.7856;38.4737;228.2408;0.4853;0.4850;0.5209;-0.5078;
342.7950;38.4806;228.0730;0.4853;0.4851;0.5209;-0.5078;
342.8027;38.4897;227.9025;0.4853;0.4851;0.5209;-0.5078;
342.8090;38.4924;227.6191;0.4854;0.4851;0.5209;-0.5078;
342.8077;38.4834;227.4657;0.4854;0.4851;0.5208;-0.5078;
342.7990;38.4603;227.2854;0.4854;0.4851;0.5208;-0.5078;
342.7598;38.4502;227.0143;0.4854;0.4851;0.5207;-0.5078;
342.7476;38.4566;226.8462;0.4853;0.4851;0.5208;-0.5078;
342.7464;38.4637;226.7212;0.4853;0.4851;0.5208;-0.5078;
342.7741;38.4659;226.4382;0.4854;0.4851;0.5208;-0.5078;
342.7893;38.4624;226.2817;0.4854;0.4851;0.5208;-0.5078;
342.8029;38.4577;226.1298;0.4854;0.4851;0.5208;-0.5078;
342.8132;38.4511;225.9338;0.4854;0.4850;0.5208;-0.5078;
342.8065;38.4537;225.8111;0.4854;0.4850;0.5208;-0.5078;
342.7869;38.4621;225.6388;0.4854;0.4850;0.5209;-0.5078;
342.7725;38.4737;225.4605;0.4853;0.4850;0.5209;-0.5078;
342.7557;38.4882;225.2016;0.4853;0.4850;0.5209;-0.5078;
342.7386;38.4853;225.0434;0.4853;0.4850;0.5209;-0.5079;
342.7308;38.4798;224.8481;0.4853;0.4850;0.5209;-0.5079;
342.7563;38.4597;224.5883;0.4853;0.4850;0.5208;-0.5079;
342.7652;38.4512;224.4789;0.4854;0.4850;0.5208;-0.5079;
342.7709;38.4413;224.3268;0.4854;0.4850;0.5208;-0.5079;
342.7679;38.4438;224.1231;0.4854;0.4850;0.5208;-0.5079;
342.7597;38.4519;223.9968;0.4854;0.4850;0.5208;-0.5079;
342.7444;38.4655;223.8241;0.4853;0.4850;0.5208;-0.5079;
342.7210;38.4821;223.6035;0.4853;0.4850;0.5209;-0.5079;
342.7113;38.4959;223.3056;0.4853;0.4851;0.5209;-0.5079;
342.7191;38.4839;223.1557;0.4853;0.4851;0.5209;-0.5079;
342.7262;38.4736;223.0468;0.4853;0.4850;0.5208;-0.5079;
342.7443;38.4587;222.8630;0.4854;0.4851;0.5208;-0.5079;
342.7528;38.4563;222.7079;0.4854;0.4850;0.5208;-0.5079;
342.7475;38.4566;222.5861;0.4854;0.4850;0.5208;-0.5079;
342.7300;38.4655;222.4137;0.4853;0.4850;0.5208;-0.5079;
342.7105;38.4699;222.1981;0.4853;0.4850;0.5208;-0.5079;
342.6932;38.4763;222.0276;0.4853;0.4850;0.5209;-0.5079;
342.6755;38.4687;221.7531;0.4853;0.4850;0.5209;-0.5079;
342.6937;38.4359;221.4592;0.4853;0.4850;0.5208;-0.5079;
342.7054;38.4288;221.3468;0.4853;0.4850;0.5208;-0.5079;
342.7201;38.4276;221.1913;0.4854;0.4850;0.5208;-0.5079;
342.7338;38.4372;220.9425;0.4854;0.4850;0.5208;-0.5079;
342.7196;38.4491;220.7241;0.4853;0.4850;0.5209;-0.5079;
342.7039;38.4612;220.5467;0.4853;0.4850;0.5209;-0.5079;
342.6915;38.4792;220.2826;0.4853;0.4850;0.5209;-0.5079;
342.6925;38.4865;220.1129;0.4853;0.4850;0.5209;-0.5079;
342.6973;38.4785;219.9611;0.4853;0.4850;0.5209;-0.5079;
342.7006;38.4522;219.7940;0.4853;0.4850;0.5208;-0.5079;
342.7052;38.4375;219.6911;0.4853;0.4851;0.5208;-0.5079;
342.7079;38.4281;219.5447;0.4854;0.4851;0.5208;-0.5079;
342.7038;38.4325;219.3446;0.4853;0.4851;0.5208;-0.5079;
342.6953;38.4429;219.0931;0.4853;0.4851;0.5208;-0.5079;
342.6786;38.4514;218.9146;0.4853;0.4851;0.5208;-0.5079;
342.6694;38.4624;218.7788;0.4853;0.4851;0.5209;-0.5079;
342.6810;38.4815;218.4740;0.4853;0.4851;0.5209;-0.5079;
342.7160;38.4820;218.2701;0.4853;0.4851;0.5209;-0.5078;
342.7392;38.4841;218.1473;0.4853;0.4851;0.5209;-0.5078;
342.7552;38.4750;217.9510;0.4853;0.4850;0.5209;-0.5078;
342.7446;38.4709;217.7926;0.4853;0.4850;0.5209;-0.5078;
342.7275;38.4711;217.5923;0.4853;0.4850;0.5209;-0.5078;
342.7208;38.4756;217.4682;0.4853;0.4850;0.5209;-0.5078;
342.6956;38.4864;217.1780;0.4853;0.4850;0.5209;-0.5078;
342.6818;38.4868;217.0148;0.4853;0.4850;0.5209;-0.5078;
342.6790;38.4829;216.8595;0.4853;0.4850;0.5209;-0.5079;
342.6814;38.4778;216.7040;0.4853;0.4850;0.5209;-0.5079;
342.6838;38.4735;216.5461;0.4853;0.4850;0.5209;-0.5079;
342.6852;38.4697;216.3465;0.4853;0.4850;0.5208;-0.5079;
342.6983;38.4765;216.2167;0.4853;0.4850;0.5208;-0.5078;
342.7199;38.4905;215.9144;0.4854;0.4851;0.5209;-0.5078;
342.7148;38.4888;215.7969;0.4853;0.4851;0.5208;-0.5078;
342.7069;38.4779;215.6044;0.4854;0.4851;0.5208;-0.5078;
342.6939;38.4822;215.3597;0.4853;0.4851;0.5208;-0.5078;
342.6767;38.4841;215.2022;0.4853;0.4850;0.5209;-0.5078;
342.6669;38.4762;215.0496;0.4853;0.4850;0.5209;-0.5079;
342.6637;38.4578;214.8693;0.4853;0.4850;0.5208;-0.5079;
342.6582;38.4536;214.7576;0.4853;0.4850;0.5208;-0.5079;
342.6532;38.4536;214.5949;0.4853;0.4850;0.5208;-0.5079;
342.6599;38.4650;214.3827;0.4853;0.4850;0.5208;-0.5079;
342.6866;38.4863;214.0808;0.4853;0.4850;0.5209;-0.5078;
342.7011;38.4904;213.9159;0.4853;0.4851;0.5209;-0.5078;
342.7100;38.4914;213.7518;0.4853;0.4851;0.5209;-0.5078;
342.7102;38.4794;213.4774;0.4853;0.4851;0.5209;-0.5078;
342.7066;38.4682;213.3673;0.4854;0.4851;0.5208;-0.5078;
342.6888;38.4571;213.1781;0.4853;0.4851;0.5208;-0.5078;
342.6406;38.4593;212.8943;0.4853;0.4850;0.5208;-0.5079;
342.6221;38.4568;212.7752;0.4853;0.4851;0.5208;-0.5079;
342.6060;38.4439;212.6226;0.4853;0.4850;0.5208;-0.5079;
342.6048;38.4331;212.4721;0.4853;0.4850;0.5208;-0.5079;
342.6068;38.4331;212.3137;0.4853;0.4850;0.5208;-0.5079;
342.6191;38.4366;212.1883;0.4853;0.4850;0.5208;-0.5079;
342.6593;38.4446;211.9730;0.4853;0.4851;0.5208;-0.5079;
342.6945;38.4466;211.6858;0.4854;0.4851;0.5208;-0.5078;
342.6867;38.4591;211.4717;0.4854;0.4851;0.5208;-0.5078;
342.6714;38.4689;211.3386;0.4853;0.4850;0.5209;-0.5078;
342.6430;38.4866;211.0752;0.4853;0.4850;0.5209;-0.5078;
342.6275;38.4889;210.9129;0.4853;0.4850;0.5209;-0.5078;
342.6131;38.4850;210.7579;0.4853;0.4850;0.5209;-0.5079;
342.5974;38.4781;210.6073;0.4853;0.4850;0.5209;-0.5079;
342.5898;38.4681;210.4604;0.4853;0.4850;0.5209;-0.5079;
342.5996;38.4637;210.3090;0.4853;0.4850;0.5209;-0.5079;
342.6134;38.4602;210.1931;0.4853;0.4850;0.5209;-0.5079;
342.6437;38.4502;209.9929;0.4853;0.4850;0.5208;-0.5079;
342.6583;38.4524;209.8255;0.4854;0.4850;0.5208;-0.5078;
342.6605;38.4632;209.6926;0.4854;0.4850;0.5208;-0.5078;
342.6622;38.4803;209.5117;0.4853;0.4851;0.5209;-0.5078;
342.6534;38.4988;209.2880;0.4853;0.4851;0.5209;-0.5078;
342.6486;38.5061;209.1594;0.4853;0.4851;0.5209;-0.5078;
342.6425;38.5095;208.9514;0.4853;0.4851;0.5209;-0.5078;
342.6341;38.5072;208.8342;0.4853;0.4851;0.5209;-0.5078;
342.6231;38.4933;208.6934;0.4853;0.4851;0.5209;-0.5078;
342.6205;38.4752;208.5580;0.4853;0.4851;0.5208;-0.5079;
342.6333;38.4596;208.4183;0.4853;0.4851;0.5208;-0.5079;
342.6478;38.4530;208.2672;0.4854;0.4851;0.5208;-0.5079;
342.6519;38.4645;208.0147;0.4854;0.4851;0.5208;-0.5078;
342.6471;38.4854;207.7896;0.4853;0.4851;0.5208;-0.5078;
342.6371;38.5020;207.6093;0.4853;0.4851;0.5209;-0.5078;
342.6223;38.5037;207.4395;0.4853;0.4851;0.5209;-0.5078;
342.6096;38.4950;207.2857;0.4853;0.4850;0.5209;-0.5078;
342.6189;38.4648;207.0849;0.4853;0.4850;0.5208;-0.5079;
342.6683;38.4815;207.3911;0.4854;0.4851;0.5207;-0.5078;
342.7314;38.5508;208.5685;0.4854;0.4852;0.5208;-0.5077;
342.7443;38.6604;211.1018;0.4852;0.4851;0.5211;-0.5077;
342.7195;38.8399;215.1473;0.4850;0.4850;0.5215;-0.5076;
342.5537;38.9946;220.7083;0.4845;0.4849;0.5219;-0.5076;
342.3503;39.3461;227.3368;0.4840;0.4848;0.5226;-0.5076;
342.2089;40.1580;236.3353;0.4838;0.4844;0.5236;-0.5071;
342.1532;41.5850;243.0984;0.4841;0.4842;0.5240;-0.5065;
342.2236;44.2710;248.6753;0.4850;0.4837;0.5248;-0.5054;
342.3632;47.3982;251.7377;0.4859;0.4834;0.5258;-0.5038;
342.3441;58.3699;254.6759;0.4876;0.4832;0.5300;-0.4979;
342.0623;64.1129;254.6849;0.4880;0.4832;0.5325;-0.4948;
341.3211;74.3239;254.1890;0.4881;0.4835;0.5374;-0.4891;
340.7104;82.4338;254.0821;0.4883;0.4839;0.5410;-0.4845;
340.0204;90.3647;254.2945;0.4886;0.4845;0.5442;-0.4799;
338.7793;102.2635;255.0068;0.4885;0.4861;0.5490;-0.4729;
337.6145;112.2699;255.8839;0.4880;0.4879;0.5532;-0.4666;
336.5680;120.1805;256.8729;0.4874;0.4896;0.5564;-0.4616;
335.7292;126.0515;257.7780;0.4868;0.4912;0.5587;-0.4578;
334.5667;133.8441;259.1801;0.4857;0.4935;0.5618;-0.4526;
332.9663;143.5192;261.2257;0.4840;0.4967;0.5657;-0.4461;
331.9390;149.3006;262.6041;0.4827;0.4991;0.5680;-0.4420;
330.1346;158.8235;265.1890;0.4801;0.5031;0.5718;-0.4352;
328.9519;164.4775;266.8983;0.4783;0.5056;0.5742;-0.4311;
326.0984;177.4640;271.3779;0.4734;0.5124;0.5795;-0.4214;
324.8081;182.9223;273.5026;0.4710;0.5154;0.5818;-0.4172;
323.0043;190.1651;276.4989;0.4672;0.5198;0.5849;-0.4115;
321.1551;197.2768;279.7293;0.4632;0.5244;0.5880;-0.4057;
319.1909;204.2466;283.1599;0.4587;0.5292;0.5912;-0.4001;
317.6959;209.3917;285.8842;0.4550;0.5330;0.5935;-0.3958;
315.6443;216.1471;289.6809;0.4498;0.5381;0.5966;-0.3901;
312.9675;224.3986;294.7117;0.4424;0.5449;0.6007;-0.3829;
311.3235;229.2347;297.8958;0.4377;0.5490;0.6031;-0.3786;
309.0724;235.5484;302.2976;0.4308;0.5547;0.6063;-0.3729;
306.7644;241.7001;306.9045;0.4235;0.5604;0.6097;-0.3671;
302.6489;252.0342;315.4391;0.4093;0.5710;0.6155;-0.3571;
300.8246;256.3000;319.2728;0.4027;0.5755;0.6182;-0.3529;
298.3585;261.8110;324.5385;0.3933;0.5817;0.6216;-0.3472;
295.9418;266.9975;329.9113;0.3835;0.5878;0.6250;-0.3418;
293.6312;271.6479;335.0841;0.3737;0.5936;0.6281;-0.3368;
292.0853;274.6874;338.6250;0.3670;0.5973;0.6304;-0.3334;
290.3380;277.9779;342.6047;0.3591;0.6015;0.6328;-0.3297;
288.8064;280.7837;346.1648;0.3520;0.6051;0.6351;-0.3264;
288.0903;282.1383;347.8947;0.3486;0.6068;0.6363;-0.3248;
287.7804;282.7081;348.6380;0.3472;0.6075;0.6367;-0.3240;
287.5755;283.1180;349.0630;0.3463;0.6078;0.6372;-0.3234;
287.4693;283.3527;349.1846;0.3462;0.6078;0.6375;-0.3231;
287.4079;283.7228;349.2320;0.3467;0.6073;0.6379;-0.3225;
287.3778;284.9302;349.3062;0.3496;0.6056;0.6388;-0.3209;
287.4364;286.7936;349.3890;0.3541;0.6031;0.6399;-0.3184;
287.7830;293.6755;349.5142;0.3712;0.5936;0.6437;-0.3089;
287.8671;300.2745;349.4484;0.3875;0.5842;0.6470;-0.2999;
287.7138;305.8976;349.2472;0.4010;0.5761;0.6496;-0.2922;
286.6350;315.8799;348.4390;0.4240;0.5611;0.6541;-0.2785;
283.5531;329.6607;346.2274;0.4552;0.5382;0.6600;-0.2598;
281.1875;337.2052;344.4087;0.4725;0.5246;0.6628;-0.2494;
278.4297;344.5375;342.1996;0.4890;0.5107;0.6654;-0.2392;
272.7985;356.6609;337.4580;0.5166;0.4859;0.6692;-0.2219;
269.0884;363.1217;334.2120;0.5313;0.4714;0.6711;-0.2123;
266.2118;367.6950;331.6008;0.5420;0.4605;0.6723;-0.2054;
261.0560;374.9401;326.8087;0.5589;0.4423;0.6740;-0.1939;
256.6528;380.3642;322.6330;0.5714;0.4277;0.6755;-0.1850;
253.2838;384.1071;319.3356;0.5806;0.4167;0.6763;-0.1786;
248.6065;388.7887;314.7012;0.5921;0.4022;0.6773;-0.1702;
240.1855;396.0425;306.0829;0.6105;0.3770;0.6788;-0.1561;
235.2460;399.6418;300.8813;0.6202;0.3627;0.6796;-0.1484;
230.1825;402.9178;295.5130;0.6292;0.3486;0.6803;-0.1408;
225.0969;405.7638;289.9867;0.6376;0.3347;0.6809;-0.1335;
218.6738;408.8485;282.9365;0.6474;0.3174;0.6816;-0.1248;
213.4801;410.9378;277.1349;0.6545;0.3037;0.6822;-0.1179;
208.2898;412.6746;271.2729;0.6613;0.2902;0.6827;-0.1113;
200.4443;414.6232;262.3159;0.6703;0.2703;0.6835;-0.1017;
195.2222;415.5242;256.2747;0.6758;0.2573;0.6841;-0.0956;
191.2871;416.0710;251.7389;0.6797;0.2477;0.6844;-0.0910;
184.7649;416.4498;244.0700;0.6854;0.2319;0.6852;-0.0838;
179.5781;416.4826;237.9508;0.6897;0.2193;0.6857;-0.0781;
174.4111;416.1725;231.8032;0.6935;0.2070;0.6863;-0.0727;
169.2599;415.6090;225.6619;0.6970;0.1948;0.6869;-0.0673;
164.1068;414.8236;219.5339;0.7000;0.1830;0.6875;-0.0621;
159.0317;413.7328;213.4014;0.7028;0.1712;0.6881;-0.0571;
153.9892;412.3947;207.3306;0.7052;0.1597;0.6888;-0.0522;
148.9309;410.7747;201.2258;0.7073;0.1482;0.6896;-0.0476;
141.4363;408.0015;192.2259;0.7099;0.1316;0.6907;-0.0407;
137.7193;406.4134;187.7431;0.7110;0.1234;0.6913;-0.0373;
132.8200;404.1033;181.8203;0.7122;0.1125;0.6921;-0.0330;
126.6856;400.8418;174.4915;0.7133;0.0993;0.6932;-0.0280;
121.9046;398.1042;168.7348;0.7140;0.0888;0.6941;-0.0238;
118.2812;395.8423;164.4202;0.7142;0.0812;0.6949;-0.0209;
113.5057;392.7118;158.7602;0.7145;0.0711;0.6958;-0.0170;
105.2753;386.7712;149.0345;0.7143;0.0538;0.6977;-0.0107;
100.5903;383.0817;143.5748;0.7139;0.0442;0.6988;-0.0073;
97.1422;380.2728;139.5610;0.7135;0.0371;0.6997;-0.0047;
90.2427;374.2822;131.6568;0.7123;0.0232;0.7015;0.0003;
85.8176;370.2831;126.6137;0.7113;0.0144;0.7027;0.0035;
82.6002;367.3571;123.0751;0.7104;0.0081;0.7037;0.0058;
79.0624;364.0528;119.1394;0.7095;0.0012;0.7047;0.0085;
76.5254;361.5242;116.3773;0.7087;-0.0036;0.7054;0.0102;
75.1955;360.0229;114.9324;0.7083;-0.0062;0.7058;0.0108;
74.8001;359.3298;114.4007;0.7081;-0.0072;0.7060;0.0106;
74.7172;359.1112;114.2744;0.7081;-0.0074;0.7060;0.0104;
74.7817;358.9658;114.0764;0.7081;-0.0075;0.7060;0.0103;
74.7367;358.9074;113.1758;0.7079;-0.0075;0.7062;0.0104;
74.6181;358.9903;111.8872;0.7077;-0.0073;0.7064;0.0105;
74.5726;358.9903;110.3558;0.7077;-0.0074;0.7064;0.0105;
74.5746;358.9967;109.1599;0.7077;-0.0074;0.7064;0.0104;
74.5838;359.0136;107.5591;0.7077;-0.0074;0.7064;0.0105;
74.5826;359.0157;105.9345;0.7077;-0.0074;0.7064;0.0104;
74.5705;359.0103;104.3096;0.7077;-0.0074;0.7064;0.0104;
74.5812;359.0107;103.0879;0.7077;-0.0073;0.7064;0.0104;
74.5992;359.0485;101.4761;0.7078;-0.0073;0.7063;0.0104;
74.6321;359.0796;99.8721;0.7078;-0.0074;0.7063;0.0104;
74.6204;359.0966;98.2650;0.7079;-0.0074;0.7062;0.0104;
74.6493;359.0568;96.6340;0.7079;-0.0073;0.7062;0.0103;
74.6760;359.0617;95.4179;0.7079;-0.0074;0.7062;0.0103;
74.6934;359.0913;93.8074;0.7079;-0.0074;0.7062;0.0104;
74.6711;359.1095;92.1969;0.7079;-0.0073;0.7062;0.0104;
74.6724;359.0874;90.5691;0.7079;-0.0073;0.7062;0.0103;
74.6678;359.0840;88.9564;0.7080;-0.0074;0.7061;0.0103;
74.6726;359.1987;86.6192;0.7080;-0.0073;0.7061;0.0105;
74.6071;359.3680;85.3956;0.7079;-0.0071;0.7062;0.0107;
74.6213;359.3713;84.6763;0.7080;-0.0071;0.7061;0.0107;
74.7049;359.2637;84.3999;0.7081;-0.0072;0.7060;0.0106;
74.7223;359.1963;84.3413;0.7081;-0.0073;0.7060;0.0105;
74.6641;359.2971;84.4718;0.7080;-0.0072;0.7061;0.0106;
74.6717;359.2957;85.1612;0.7078;-0.0073;0.7063;0.0105;
74.7321;359.0992;86.2855;0.7078;-0.0075;0.7063;0.0102;
74.8236;358.9371;88.5528;0.7080;-0.0076;0.7061;0.0099;
74.7993;358.9927;90.1878;0.7080;-0.0076;0.7061;0.0100;
74.7684;359.0403;91.8526;0.7080;-0.0075;0.7061;0.0102;
74.7811;359.0538;93.4857;0.7080;-0.0075;0.7061;0.0102;
74.7906;359.0493;95.1252;0.7080;-0.0075;0.7061;0.0102;
74.7784;359.0616;96.7743;0.7081;-0.0075;0.7060;0.0102;
74.7490;359.0867;98.0018;0.7080;-0.0075;0.7061;0.0103;
74.7527;359.0984;100.0571;0.7080;-0.0075;0.7061;0.0103;
74.7728;359.1247;101.6920;0.7080;-0.0074;0.7061;0.0104;
74.7641;359.1401;103.3313;0.7080;-0.0074;0.7061;0.0104;
74.7396;359.1476;104.5613;0.7080;-0.0074;0.7061;0.0104;
74.7213;359.1121;107.3914;0.7080;-0.0074;0.7061;0.0103;
74.7495;359.1254;109.0300;0.7081;-0.0075;0.7060;0.0104;
74.7703;359.1546;110.2583;0.7081;-0.0074;0.7060;0.0104;
74.7768;359.1254;111.8437;0.7081;-0.0074;0.7060;0.0104;
74.7952;358.9202;113.6291;0.7081;-0.0075;0.7060;0.0102;
74.7534;359.0331;114.1854;0.7081;-0.0074;0.7060;0.0103;
74.7927;359.3568;114.4543;0.7080;-0.0071;0.7061;0.0106;
75.3432;360.1825;115.1301;0.7081;-0.0057;0.7060;0.0107;
77.4367;362.5766;117.6203;0.7087;-0.0013;0.7055;0.0095;
82.4930;367.2664;123.3149;0.7101;0.0086;0.7040;0.0053;
86.9335;371.3350;128.2258;0.7113;0.0173;0.7027;0.0021;
91.6156;375.5350;133.4526;0.7124;0.0264;0.7012;-0.0010;
96.3001;379.6852;138.8057;0.7133;0.0359;0.7000;-0.0041;
100.9695;383.5169;144.2133;0.7139;0.0455;0.6988;-0.0076;
105.5561;387.1422;149.6519;0.7141;0.0551;0.6978;-0.0112;
110.3344;390.5639;155.2152;0.7143;0.0649;0.6966;-0.0149;
117.5664;395.4349;163.7108;0.7142;0.0801;0.6950;-0.0205;
123.5755;399.1456;170.9173;0.7136;0.0931;0.6938;-0.0255;
128.3914;401.8466;176.6858;0.7128;0.1034;0.6930;-0.0295;
135.8077;405.5324;185.5558;0.7114;0.1195;0.6916;-0.0359;
140.7431;407.7469;191.5103;0.7100;0.1305;0.6909;-0.0402;
145.7688;409.7222;197.5526;0.7084;0.1417;0.6900;-0.0448;
151.9932;411.8416;205.1017;0.7058;0.1558;0.6892;-0.0506;
162.1703;414.4212;217.3268;0.7009;0.1790;0.6878;-0.0605;
167.3072;415.3776;223.4538;0.6979;0.1909;0.6871;-0.0655;
175.0942;416.2023;232.7066;0.6929;0.2090;0.6861;-0.0737;
180.2485;416.5215;238.8550;0.6889;0.2213;0.6857;-0.0790;
185.4316;416.4327;244.9674;0.6846;0.2339;0.6851;-0.0848;
194.6223;415.6456;255.6702;0.6762;0.2563;0.6841;-0.0950;
199.8934;414.7798;261.7332;0.6708;0.2693;0.6836;-0.1011;
205.0555;413.6022;267.7212;0.6648;0.2825;0.6831;-0.1075;
211.6235;411.6208;275.1096;0.6568;0.2993;0.6824;-0.1157;
216.8254;409.6835;280.9350;0.6498;0.3129;0.6818;-0.1224;
220.7336;407.9863;285.2318;0.6442;0.3232;0.6814;-0.1276;
228.4322;403.9990;293.6329;0.6321;0.3439;0.6805;-0.1384;
235.9899;399.1754;301.6731;0.6186;0.3653;0.6794;-0.1497;
239.7337;396.4515;305.5734;0.6113;0.3759;0.6788;-0.1555;
244.6213;392.4887;310.5948;0.6011;0.3902;0.6780;-0.1635;
250.5327;387.0162;316.5515;0.5873;0.4083;0.6769;-0.1737;
255.1476;382.1661;321.0800;0.5757;0.4228;0.6757;-0.1823;
259.5582;376.9390;325.3095;0.5632;0.4374;0.6745;-0.1910;
262.7206;372.7940;328.3051;0.5534;0.4484;0.6735;-0.1977;
270.5556;360.7271;335.4191;0.5254;0.4772;0.6704;-0.2163;
274.0845;354.1502;338.4731;0.5104;0.4916;0.6684;-0.2259;
276.4939;349.0488;340.5243;0.4987;0.5022;0.6669;-0.2333;
280.0955;340.1628;343.4682;0.4783;0.5196;0.6639;-0.2458;
283.5193;329.1218;346.0794;0.4533;0.5393;0.6599;-0.2611;
285.3079;321.8214;347.0811;0.4375;0.5511;0.6568;-0.2711;
286.7572;314.8221;347.3808;0.4232;0.5612;0.6536;-0.2806;
287.9513;308.1800;347.0323;0.4109;0.5696;0.6502;-0.2896;
288.7737;303.3625;346.3434;0.4032;0.5749;0.6475;-0.2961;
289.8702;296.9943;344.9039;0.3948;0.5807;0.6436;-0.3046;
292.4078;282.7042;339.1994;0.3837;0.5886;0.6338;-0.3235;
295.1561;271.9117;333.0869;0.3851;0.5892;0.6253;-0.3369;
298.5313;261.5944;325.6720;0.3940;0.5853;0.6168;-0.3488;
300.7108;255.5459;321.0702;0.4015;0.5815;0.6118;-0.3555;
303.0232;249.4034;316.4499;0.4099;0.5768;0.6068;-0.3620;
305.9788;241.6387;310.7699;0.4205;0.5707;0.6006;-0.3698;
308.2822;235.3392;306.4075;0.4284;0.5657;0.5959;-0.3759;
310.5286;228.8978;302.2674;0.4359;0.5609;0.5912;-0.3820;
312.2158;223.9299;299.2839;0.4413;0.5574;0.5875;-0.3865;
315.9553;212.0586;292.8159;0.4527;0.5494;0.5793;-0.3971;
318.0633;205.0825;289.4170;0.4588;0.5449;0.5746;-0.4031;
320.0398;198.0421;286.2051;0.4642;0.5407;0.5700;-0.4089;
322.4434;189.0176;282.5537;0.4707;0.5357;0.5641;-0.4162;
323.8093;183.5429;280.5050;0.4742;0.5328;0.5607;-0.4206;
325.6255;176.1335;277.9903;0.4787;0.5291;0.5561;-0.4263;
327.3215;168.7034;275.6639;0.4828;0.5256;0.5515;-0.4318;
328.9637;161.1235;273.6064;0.4866;0.5224;0.5469;-0.4374;
330.4606;153.4519;271.7672;0.4901;0.5192;0.5423;-0.4430;
331.5895;147.6700;270.5343;0.4925;0.5172;0.5387;-0.4469;
333.3191;137.9944;268.7358;0.4962;0.5138;0.5330;-0.4536;
335.1675;126.2331;267.0682;0.5000;0.5104;0.5260;-0.4613;
336.6093;116.3442;266.0781;0.5028;0.5079;0.5201;-0.4676;
337.6310;108.4146;265.5397;0.5048;0.5061;0.5155;-0.4726;
338.5414;100.4551;265.2275;0.5065;0.5047;0.5107;-0.4774;
339.3968;92.4691;265.1458;0.5082;0.5035;0.5059;-0.4820;
340.1815;84.4961;265.2685;0.5096;0.5025;0.5011;-0.4865;
340.7047;78.5057;265.5243;0.5106;0.5019;0.4974;-0.4898;
341.2275;70.7153;265.9412;0.5115;0.5014;0.4929;-0.4940;
341.7782;61.5402;266.7639;0.5127;0.5011;0.4872;-0.4987;
342.1090;55.3001;267.4643;0.5133;0.5011;0.4834;-0.5018;
342.3057;51.4317;268.0227;0.5137;0.5012;0.4809;-0.5036;
342.4305;47.5717;268.6249;0.5141;0.5013;0.4784;-0.5055;
342.5259;45.0687;269.1168;0.5144;0.5015;0.4766;-0.5067;
342.6080;43.7657;269.3829;0.5146;0.5016;0.4756;-0.5073;
342.6654;43.2318;269.5269;0.5147;0.5018;0.4752;-0.5075;
342.7026;43.0569;269.6213;0.5148;0.5018;0.4749;-0.5076;
342.7142;43.0207;269.6093;0.5148;0.5018;0.4749;-0.5076;
342.7171;42.9825;269.5195;0.5147;0.5018;0.4749;-0.5076;
342.7375;42.9432;269.3250;0.5147;0.5019;0.4748;-0.5076;
342.7602;42.9358;269.2168;0.5147;0.5020;0.4748;-0.5076;
342.7813;42.9421;269.0149;0.5147;0.5020;0.4748;-0.5075;
342.7763;42.9400;268.8922;0.5147;0.5020;0.4748;-0.5076;
342.7487;42.9706;268.5724;0.5147;0.5020;0.4748;-0.5076;
342.7339;42.9955;268.3820;0.5147;0.5020;0.4748;-0.5076;
342.7325;43.0021;268.2178;0.5147;0.5020;0.4748;-0.5076;
342.7420;42.9891;268.0298;0.5147;0.5020;0.4748;-0.5076;
342.7407;42.9822;267.9171;0.5148;0.5020;0.4748;-0.5076;
342.7330;42.9738;267.7620;0.5148;0.5019;0.4747;-0.5076;
342.7238;42.9825;267.5871;0.5148;0.5019;0.4748;-0.5076;
342.7052;43.0050;267.3151;0.5148;0.5019;0.4748;-0.5076;
342.6944;43.0161;267.0952;0.5148;0.5019;0.4748;-0.5076;
342.7043;43.0203;266.9338;0.5148;0.5019;0.4748;-0.5076;
342.7186;42.9913;266.7242;0.5148;0.5019;0.4748;-0.5076;
342.7193;42.9836;266.5294;0.5148;0.5019;0.4747;-0.5076;
342.7143;42.9898;266.3605;0.5148;0.5019;0.4747;-0.5076;
342.6934;43.0123;266.1273;0.5148;0.5019;0.4748;-0.5076;
342.6812;43.0254;265.9918;0.5148;0.5019;0.4748;-0.5076;
342.6779;43.0288;265.8308;0.5148;0.5019;0.4748;-0.5076;
342.6888;43.0235;265.6393;0.5148;0.5019;0.4748;-0.5076;
342.6805;43.0209;265.3992;0.5148;0.5019;0.4748;-0.5076;
342.6723;43.0162;265.2379;0.5148;0.5019;0.4748;-0.5077;
342.6653;43.0228;265.0690;0.5148;0.5019;0.4748;-0.5077;
342.6564;43.0303;264.8192;0.5148;0.5019;0.4748;-0.5076;
342.6615;43.0315;264.6582;0.5148;0.5019;0.4748;-0.5076;
342.6624;43.0268;264.5004;0.5148;0.5019;0.4748;-0.5076;
342.6512;43.0170;264.3086;0.5148;0.5019;0.4748;-0.5077;
342.6429;43.0202;264.1056;0.5148;0.5018;0.4748;-0.5077;
342.6391;43.0219;263.9440;0.5148;0.5018;0.4748;-0.5077;
342.6248;43.0240;263.7806;0.5147;0.5018;0.4748;-0.5077;
342.6280;43.0259;263.4952;0.5147;0.5018;0.4748;-0.5077;
342.6467;43.0216;263.3385;0.5148;0.5018;0.4748;-0.5077;
342.6568;43.0141;263.2220;0.5148;0.5018;0.4748;-0.5077;
342.6572;43.0161;263.0166;0.5148;0.5018;0.4748;-0.5077;
342.6586;43.0194;262.8523;0.5148;0.5018;0.4748;-0.5077;
342.6621;43.0290;262.7254;0.5148;0.5018;0.4748;-0.5077;
342.6629;43.0322;262.5632;0.5148;0.5018;0.4748;-0.5076;
342.6721;43.0239;262.3680;0.5148;0.5018;0.4748;-0.5076;
342.6837;43.0224;262.2103;0.5149;0.5018;0.4748;-0.5076;
342.6771;43.0289;262.0408;0.5148;0.5018;0.4748;-0.5076;
342.6538;43.0434;261.8677;0.5148;0.5018;0.4748;-0.5077;
342.6377;43.0476;261.5835;0.5148;0.5018;0.4748;-0.5077;
342.6358;43.0344;261.4758;0.5148;0.5018;0.4748;-0.5077;
342.6349;43.0000;261.3087;0.5149;0.5018;0.4747;-0.5077;
342.6381;42.9920;261.1555;0.5149;0.5018;0.4747;-0.5077;
342.6397;43.0010;260.9818;0.5149;0.5018;0.4747;-0.5077;
342.6319;43.0133;260.8001;0.5149;0.5018;0.4748;-0.5077;
342.6235;43.0290;260.6196;0.5148;0.5018;0.4748;-0.5077;
342.6379;43.0373;260.3250;0.5149;0.5018;0.4748;-0.5077;
342.6549;43.0375;260.2024;0.5149;0.5018;0.4748;-0.5076;
342.6851;43.0364;260.0450;0.5149;0.5018;0.4748;-0.5076;
342.7112;43.0359;259.8436;0.5149;0.5018;0.4748;-0.5076;
342.7072;43.0358;259.7210;0.5149;0.5018;0.4748;-0.5076;
342.6829;43.0349;259.5603;0.5149;0.5018;0.4748;-0.5076;
342.6633;43.0427;259.3914;0.5149;0.5018;0.4748;-0.5076;
342.6362;43.0604;259.0933;0.5148;0.5018;0.4749;-0.5076;
342.6312;43.0465;258.9489;0.5148;0.5018;0.4749;-0.5076;
342.6379;43.0246;258.8504;0.5148;0.5018;0.4748;-0.5077;
342.6488;42.9981;258.6793;0.5149;0.5018;0.4747;-0.5077;
342.6308;43.0038;258.5092;0.5149;0.5018;0.4748;-0.5077;
342.6071;43.0265;258.3240;0.5148;0.5018;0.4748;-0.5077;
342.6004;43.0409;258.1437;0.5148;0.5018;0.4748;-0.5077;
342.6115;43.0440;257.8994;0.5148;0.5018;0.4748;-0.5077;
342.6320;43.0365;257.7477;0.5148;0.5018;0.4748;-0.5076;
342.6559;43.0343;257.5902;0.5149;0.5018;0.4748;-0.5076;
342.6663;43.0332;257.3931;0.5149;0.5018;0.4748;-0.5076;
342.6559;43.0402;257.2247;0.5149;0.5018;0.4748;-0.5076;
342.6426;43.0482;257.0510;0.5149;0.5018;0.4748;-0.5076;
342.6249;43.0556;256.8802;0.5148;0.5018;0.4748;-0.5076;
342.6020;43.0429;256.6053;0.5148;0.5018;0.4748;-0.5076;
342.6040;43.0246;256.4670;0.5148;0.5018;0.4748;-0.5077;
342.6069;43.0039;256.3309;0.5148;0.5018;0.4747;-0.5077;
342.5994;42.9966;256.1844;0.5148;0.5018;0.4747;-0.5077;
342.5970;42.9975;256.0232;0.5148;0.5018;0.4747;-0.5077;
342.5939;43.0087;255.8461;0.5148;0.5018;0.4748;-0.5077;
342.5783;43.0259;255.6636;0.5148;0.5018;0.4748;-0.5077;
342.5924;43.0500;255.3575;0.5148;0.5018;0.4749;-0.5076;
342.6161;43.0536;255.1965;0.5148;0.5018;0.4749;-0.5076;
342.6284;43.0477;255.0797;0.5148;0.5018;0.4748;-0.5076;
342.6274;43.0394;254.8845;0.5148;0.5018;0.4748;-0.5076;
342.6222;43.0401;254.7183;0.5148;0.5018;0.4749;-0.5076;
342.6178;43.0428;254.5924;0.5148;0.5018;0.4749;-0.5076;
342.5945;43.0469;254.3851;0.5148;0.5018;0.4749;-0.5076;
342.5745;43.0276;254.1586;0.5148;0.5018;0.4749;-0.5077;
342.5646;43.0163;254.0126;0.5148;0.5018;0.4748;-0.5077;
342.5498;43.0076;253.8618;0.5148;0.5018;0.4748;-0.5077;
342.5286;43.0024;253.6647;0.5148;0.5018;0.4748;-0.5078;
342.5227;43.0050;253.5020;0.5148;0.5018;0.4748;-0.5078;
342.5300;43.0093;253.2948;0.5148;0.5018;0.4748;-0.5078;
342.5448;43.0236;253.1142;0.5148;0.5018;0.4748;-0.5077;
342.5798;43.0401;252.8169;0.5148;0.5018;0.4748;-0.5077;
342.5932;43.0412;252.6984;0.5148;0.5018;0.4748;-0.5076;
342.6004;43.0447;252.5341;0.5148;0.5018;0.4748;-0.5076;
342.5930;43.0479;252.2899;0.5148;0.5018;0.4748;-0.5076;
342.5863;43.0351;252.0965;0.5148;0.5018;0.4748;-0.5077;
342.5836;43.0284;251.9834;0.5148;0.5018;0.4748;-0.5077;
342.5807;43.0217;251.7890;0.5148;0.5018;0.4748;-0.5077;
342.5704;43.0139;251.5994;0.5148;0.5018;0.4748;-0.5077;
342.5587;43.0079;251.4445;0.5148;0.5017;0.4748;-0.5077;
342.5405;43.0100;251.2790;0.5148;0.5017;0.4748;-0.5077;
342.5246;43.0276;250.9766;0.5148;0.5017;0.4748;-0.5077;
342.5392;43.0309;250.8528;0.5148;0.5017;0.4748;-0.5077;
342.5634;43.0296;250.6933;0.5149;0.5017;0.4748;-0.5077;
342.5867;43.0243;250.5020;0.5149;0.5017;0.4748;-0.5077;
342.5960;43.0233;250.3822;0.5149;0.5017;0.4748;-0.5077;
342.6044;43.0318;250.2107;0.5149;0.5018;0.4748;-0.5076;
342.6037;43.0368;250.0386;0.5149;0.5018;0.4748;-0.5076;
342.5916;43.0528;249.7329;0.5148;0.5018;0.4749;-0.5076;
342.5795;43.0526;249.5698;0.5148;0.5018;0.4749;-0.5076;
342.5625;43.0498;249.4184;0.5148;0.5018;0.4749;-0.5076;
342.5548;43.0327;249.2008;0.5148;0.5018;0.4748;-0.5077;
342.5580;43.0178;249.0171;0.5149;0.5018;0.4748;-0.5077;
342.5519;43.0133;248.8579;0.5149;0.5018;0.4748;-0.5077;
342.5495;43.0438;248.5398;0.5148;0.5018;0.4748;-0.5077;
342.5467;43.0632;248.3986;0.5148;0.5018;0.4748;-0.5076;
342.5381;43.0760;248.1817;0.5148;0.5018;0.4749;-0.5076;
342.5548;43.0535;247.9214;0.5148;0.5018;0.4748;-0.5076;
342.5672;43.0371;247.8172;0.5149;0.5018;0.4748;-0.5076;
342.5721;43.0259;247.6693;0.5149;0.5018;0.4748;-0.5076;
342.5643;43.0260;247.5024;0.5149;0.5018;0.4748;-0.5076;
342.5429;43.0349;247.2837;0.5148;0.5018;0.4748;-0.5076;
342.5318;43.0403;247.1575;0.5148;0.5018;0.4748;-0.5077;
342.5179;43.0448;246.9518;0.5148;0.5018;0.4748;-0.5077;
342.5253;43.0347;246.7239;0.5148;0.5018;0.4748;-0.5077;
342.5433;43.0200;246.5410;0.5148;0.5018;0.4748;-0.5077;
342.5555;43.0073;246.3942;0.5149;0.5018;0.4748;-0.5077;
342.5487;43.0067;246.1494;0.5149;0.5018;0.4748;-0.5077;
342.5359;43.0206;245.9730;0.5148;0.5018;0.4748;-0.5077;
342.5244;43.0378;245.7938;0.5148;0.5018;0.4749;-0.5077;
342.5103;43.0529;245.5792;0.5148;0.5018;0.4749;-0.5077;
342.5075;43.0550;245.4591;0.5148;0.5018;0.4749;-0.5077;
342.5232;43.0342;245.2769;0.5148;0.5018;0.4748;-0.5077;
342.5350;43.0209;245.1709;0.5148;0.5018;0.4748;-0.5077;
342.5346;43.0015;244.9089;0.5149;0.5018;0.4748;-0.5077;
342.5263;43.0091;244.7409;0.5148;0.5018;0.4748;-0.5077;
342.5132;43.0226;244.5612;0.5148;0.5018;0.4748;-0.5077;
342.4900;43.0420;244.3374;0.5148;0.5018;0.4748;-0.5077;
342.4827;43.0455;244.1759;0.5148;0.5018;0.4748;-0.5077;
342.4986;43.0375;244.0246;0.5148;0.5018;0.4748;-0.5077;
342.5046;43.0265;243.8775;0.5148;0.5018;0.4748;-0.5077;
342.4845;43.0156;243.6098;0.5148;0.5018;0.4747;-0.5077;
342.4786;43.0180;243.4474;0.5148;0.5018;0.4747;-0.5077;
342.4769;43.0197;243.2818;0.5148;0.5018;0.4748;-0.5077;
342.4774;43.0301;242.9821;0.5148;0.5018;0.4748;-0.5077;
342.4847;43.0284;242.8619;0.5148;0.5018;0.4748;-0.5077;
342.4953;43.0211;242.7047;0.5148;0.5018;0.4748;-0.5077;
342.5038;43.0226;242.4226;0.5148;0.5018;0.4748;-0.5077;
342.5035;43.0345;242.2518;0.5148;0.5018;0.4748;-0.5077;
342.5102;43.0435;242.0814;0.5148;0.5018;0.4748;-0.5076;
342.5188;43.0499;241.8743;0.5148;0.5018;0.4748;-0.5076;
342.5137;43.0493;241.7113;0.5148;0.5018;0.4749;-0.5076;
342.4940;43.0481;241.5115;0.5148;0.5018;0.4749;-0.5077;
342.4894;43.0381;241.3653;0.5148;0.5017;0.4748;-0.5077;
342.4825;43.0263;241.1342;0.5148;0.5017;0.4748;-0.5077;
342.4724;43.0250;241.0136;0.5148;0.5017;0.4748;-0.5077;
342.4665;43.0270;240.8478;0.5148;0.5017;0.4748;-0.5077;
342.4702;43.0315;240.6401;0.5148;0.5017;0.4748;-0.5077;
342.4737;43.0281;240.4827;0.5148;0.5017;0.4748;-0.5077;
342.4783;43.0230;240.3216;0.5149;0.5017;0.4748;-0.5077;
342.4908;43.0180;240.1999;0.5149;0.5018;0.4748;-0.5077;
342.5199;43.0261;239.9905;0.5149;0.5018;0.4748;-0.5076;
342.5308;43.0370;239.8167;0.5149;0.5018;0.4748;-0.5076;
342.5198;43.0509;239.6380;0.5149;0.5018;0.4748;-0.5076;
342.5069;43.0579;239.5073;0.5149;0.5018;0.4748;-0.5076;
342.4913;43.0457;239.2439;0.5149;0.5018;0.4748;-0.5076;
342.4900;43.0327;239.0972;0.5149;0.5018;0.4747;-0.5076;
342.4894;43.0183;238.9547;0.5149;0.5018;0.4747;-0.5077;
342.4923;43.0084;238.7665;0.5149;0.5018;0.4747;-0.5077;
342.4901;43.0101;238.6446;0.5149;0.5018;0.4747;-0.5077;
342.4765;43.0207;238.4723;0.5149;0.5018;0.4748;-0.5077;
342.4594;43.0354;238.3370;0.5148;0.5018;0.4748;-0.5077;
342.4492;43.0507;238.1143;0.5148;0.5018;0.4749;-0.5077;
342.4510;43.0483;237.9100;0.5148;0.5018;0.4749;-0.5077;
342.4609;43.0468;237.7502;0.5148;0.5018;0.4749;-0.5077;
342.4764;43.0464;237.6286;0.5148;0.5018;0.4749;-0.5076;
342.5070;43.0417;237.3568;0.5149;0.5018;0.4748;-0.5076;
342.5051;43.0314;237.2061;0.5149;0.5018;0.4748;-0.5076;
342.4930;43.0303;237.0466;0.5149;0.5018;0.4748;-0.5076;
342.4822;43.0384;236.8788;0.5148;0.5018;0.4748;-0.5076;
342.4590;43.0558;236.6979;0.5148;0.5018;0.4749;-0.5076;
342.4372;43.0630;236.5706;0.5148;0.5018;0.4749;-0.5076;
342.4155;43.0572;236.4156;0.5147;0.5018;0.4749;-0.5077;
342.4154;43.0399;236.2354;0.5148;0.5018;0.4748;-0.5077;
342.4236;43.0212;236.0965;0.5148;0.5018;0.4748;-0.5077;
342.4306;43.0046;235.9518;0.5148;0.5018;0.4747;-0.5077;
342.4264;43.0027;235.7916;0.5148;0.5018;0.4747;-0.5077;
342.4262;43.0294;235.5116;0.5148;0.5018;0.4748;-0.5077;
342.4359;43.0463;235.3283;0.5148;0.5018;0.4748;-0.5076;
342.4394;43.0564;235.1526;0.5148;0.5018;0.4748;-0.5076;
342.4440;43.0615;234.9888;0.5148;0.5018;0.4748;-0.5076;
342.4523;43.0602;234.8333;0.5148;0.5018;0.4748;-0.5076;
342.4593;43.0471;234.6862;0.5148;0.5018;0.4748;-0.5076;
342.4533;43.0296;234.5481;0.5149;0.5018;0.4748;-0.5076;
342.4400;43.0133;234.4042;0.5149;0.5018;0.4747;-0.5077;
342.4234;43.0113;234.2441;0.5149;0.5018;0.4747;-0.5077;
342.3882;43.0188;234.0375;0.5148;0.5018;0.4748;-0.5077;
342.3672;43.0233;233.9109;0.5148;0.5018;0.4748;-0.5078;
342.3505;43.0358;233.6137;0.5148;0.5018;0.4748;-0.5078;
342.3667;43.0343;233.4515;0.5148;0.5018;0.4748;-0.5077;
342.4010;43.0273;233.2978;0.5148;0.5018;0.4748;-0.5077;
342.4458;43.0217;233.1051;0.5149;0.5018;0.4748;-0.5077;
342.4641;43.0181;232.9861;0.5149;0.5018;0.4748;-0.5076;
342.4701;43.0115;232.8269;0.5149;0.5018;0.4748;-0.5076;
342.4603;43.0105;232.6623;0.5149;0.5018;0.4748;-0.5076;
342.4182;43.0306;232.3576;0.5148;0.5017;0.4748;-0.5077;
342.4019;43.0413;232.1830;0.5148;0.5017;0.4748;-0.5077;
342.3964;43.0395;232.0636;0.5148;0.5017;0.4748;-0.5077;
342.3862;43.0092;231.8195;0.5148;0.5017;0.4748;-0.5077;
342.3878;42.9957;231.6726;0.5149;0.5017;0.4747;-0.5078;
342.3806;42.9979;231.5090;0.5149;0.5018;0.4747;-0.5078;
342.3828;43.0078;231.2965;0.5148;0.5018;0.4747;-0.5077;
342.3951;43.0251;231.1196;0.5148;0.5018;0.4747;-0.5077;
342.4034;43.0396;230.9818;0.5148;0.5018;0.4748;-0.5077;
342.4145;43.0587;230.8008;0.5148;0.5018;0.4748;-0.5076;
342.4445;43.0660;230.5497;0.5149;0.5018;0.4748;-0.5076;
342.4578;43.0556;230.3550;0.5149;0.5018;0.4748;-0.5076;
342.4536;43.0551;230.1956;0.5149;0.5018;0.4748;-0.5076;
342.4381;43.0515;229.9167;0.5149;0.5018;0.4748;-0.5076;
342.4207;43.0469;229.8011;0.5148;0.5018;0.4748;-0.5076;
342.4030;43.0351;229.6493;0.5148;0.5018;0.4748;-0.5077;
342.3928;43.0305;229.4921;0.5148;0.5017;0.4748;-0.5077;
342.3817;43.0381;229.3242;0.5148;0.5018;0.4748;-0.5077;
342.3921;43.0450;229.1580;0.5148;0.5018;0.4749;-0.5077;
342.4090;43.0472;228.9982;0.5148;0.5018;0.4749;-0.5076;
342.4204;43.0499;228.7529;0.5148;0.5018;0.4749;-0.5076;
342.4162;43.0528;228.5883;0.5148;0.5018;0.4748;-0.5076;
342.4090;43.0563;228.4218;0.5148;0.5018;0.4749;-0.5076;
342.4003;43.0535;228.2608;0.5148;0.5018;0.4749;-0.5076;
342.3947;43.0490;228.0613;0.5148;0.5018;0.4748;-0.5076;
342.3972;43.0421;227.9454;0.5148;0.5018;0.4748;-0.5076;
342.3969;43.0380;227.7890;0.5148;0.5018;0.4748;-0.5076;
342.3843;43.0169;227.5296;0.5148;0.5018;0.4748;-0.5077;
342.3830;43.0194;227.4079;0.5148;0.5018;0.4748;-0.5077;
342.3748;43.0355;227.2316;0.5148;0.5018;0.4748;-0.5077;
342.3570;43.0509;226.9298;0.5148;0.5018;0.4748;-0.5077;
342.3603;43.0514;226.7712;0.5148;0.5018;0.4748;-0.5076;
342.3697;43.0417;226.6192;0.5148;0.5018;0.4748;-0.5076;
342.3732;43.0355;226.3521;0.5148;0.5018;0.4748;-0.5076;
342.3849;43.0251;226.2053;0.5148;0.5018;0.4748;-0.5076;
342.3897;43.0214;226.0450;0.5148;0.5018;0.4748;-0.5076;
342.3754;43.0334;225.8304;0.5148;0.5018;0.4748;-0.5076;
342.3618;43.0405;225.6580;0.5148;0.5018;0.4748;-0.5076;
342.3510;43.0522;225.4026;0.5148;0.5019;0.4748;-0.5076;
342.3488;43.0544;225.2000;0.5148;0.5019;0.4748;-0.5076;
342.3478;43.0481;225.0435;0.5148;0.5018;0.4748;-0.5076;
342.3532;43.0342;224.9325;0.5148;0.5018;0.4748;-0.5077;
342.3656;43.0171;224.7901;0.5148;0.5018;0.4748;-0.5077;
342.3630;43.0066;224.6047;0.5148;0.5018;0.4748;-0.5077;
342.3503;43.0061;224.4424;0.5148;0.5018;0.4748;-0.5077;
342.3367;43.0078;224.2753;0.5148;0.5018;0.4748;-0.5077;
342.3206;43.0122;224.1081;0.5148;0.5018;0.4748;-0.5077;
342.3027;43.0295;223.8441;0.5148;0.5018;0.4748;-0.5077;
342.3024;43.0445;223.6655;0.5148;0.5018;0.4748;-0.5077;
342.3151;43.0478;223.5007;0.5148;0.5018;0.4748;-0.5077;
342.3314;43.0407;223.3496;0.5148;0.5018;0.4748;-0.5077;
342.3510;43.0299;223.2017;0.5149;0.5018;0.4748;-0.5077;
342.3626;43.0253;223.0478;0.5149;0.5018;0.4748;-0.5077;
342.3643;43.0333;222.8788;0.5149;0.5018;0.4748;-0.5076;
342.3528;43.0496;222.6127;0.5149;0.5018;0.4748;-0.5076;
342.3403;43.0546;222.4824;0.5148;0.5018;0.4748;-0.5076;
342.3154;43.0573;222.2793;0.5148;0.5018;0.4748;-0.5077;
342.3068;43.0512;222.1251;0.5148;0.5018;0.4748;-0.5077;
342.3117;43.0428;221.9755;0.5148;0.5018;0.4748;-0.5077;
342.3242;43.0279;221.8315;0.5148;0.5018;0.4748;-0.5077;
342.3386;43.0126;221.6853;0.5149;0.5018;0.4748;-0.5077;
342.3462;43.0031;221.4534;0.5149;0.5018;0.4748;-0.5077;
342.3515;43.0132;221.2807;0.5149;0.5018;0.4748;-0.5077;
342.3521;43.0370;221.0926;0.5149;0.5018;0.4748;-0.5076;
342.3533;43.0636;220.9045;0.5148;0.5018;0.4749;-0.5076;
342.3570;43.0863;220.7181;0.5148;0.5018;0.4749;-0.5076;
342.3506;43.0955;220.5462;0.5148;0.5018;0.4749;-0.5076;
342.3419;43.0884;220.3929;0.5148;0.5018;0.4749;-0.5076;
342.3467;43.0519;220.1895;0.5148;0.5018;0.4748;-0.5076;
342.3573;43.0287;220.0546;0.5149;0.5018;0.4748;-0.5076;
342.3520;43.0162;219.9077;0.5149;0.5018;0.4747;-0.5076;
342.3530;43.0254;219.7602;0.5149;0.5018;0.4747;-0.5076;
342.4139;43.0849;220.3291;0.5150;0.5019;0.4746;-0.5075;
342.4554;43.1721;221.9430;0.5150;0.5020;0.4747;-0.5074;
342.3370;43.4633;226.8290;0.5146;0.5020;0.4753;-0.5072;
342.1342;43.6638;231.8151;0.5141;0.5020;0.4758;-0.5072;
341.9738;43.9540;238.0304;0.5137;0.5019;0.4765;-0.5071;
341.8921;44.5179;246.8307;0.5134;0.5014;0.4774;-0.5070;
341.8629;45.4797;253.6826;0.5134;0.5012;0.4780;-0.5067;
341.9102;47.4912;259.4372;0.5137;0.5010;0.4788;-0.5059;
341.9868;49.9386;262.7692;0.5138;0.5007;0.4800;-0.5048;
341.9421;59.4720;266.3706;0.5130;0.5014;0.4854;-0.4998;
341.6787;64.8257;266.5195;0.5124;0.5016;0.4886;-0.4971;
340.9799;74.6954;265.8976;0.5107;0.5024;0.4949;-0.4918;
339.9962;86.8221;265.2969;0.5087;0.5036;0.5024;-0.4850;
339.2128;94.7351;265.2774;0.5073;0.5046;0.5071;-0.4805;
338.2835;102.6623;265.4701;0.5057;0.5058;0.5117;-0.4760;
337.3357;110.6491;265.8402;0.5039;0.5074;0.5164;-0.4712;
335.4177;124.5554;267.0215;0.5002;0.5106;0.5247;-0.4624;
334.4997;130.4453;267.7625;0.4983;0.5123;0.5281;-0.4586;
333.2192;138.2256;268.9703;0.4958;0.5145;0.5327;-0.4535;
331.8513;146.0191;270.3490;0.4929;0.5172;0.5373;-0.4482;
330.4358;153.7531;271.9737;0.4897;0.5201;0.5419;-0.4427;
328.8631;161.3967;273.8234;0.4862;0.5231;0.5466;-0.4373;
327.2316;168.9537;275.9045;0.4824;0.5264;0.5512;-0.4317;
324.2474;182.0190;280.0621;0.4750;0.5326;0.5593;-0.4217;
322.8624;187.5301;282.0527;0.4715;0.5355;0.5627;-0.4175;
320.9438;194.7622;284.9143;0.4665;0.5393;0.5674;-0.4117;
317.4916;207.1910;290.4296;0.4569;0.5467;0.5755;-0.4013;
315.9108;212.4084;292.9865;0.4523;0.5499;0.5792;-0.3969;
313.2487;220.8999;297.5374;0.4444;0.5556;0.5850;-0.3894;
311.0497;227.5729;301.4157;0.4374;0.5603;0.5897;-0.3833;
308.7780;234.0849;305.5058;0.4301;0.5650;0.5946;-0.3772;
306.4712;240.4443;309.7980;0.4223;0.5698;0.5994;-0.3711;
304.7128;245.1057;313.1555;0.4161;0.5735;0.6030;-0.3665;
300.4940;255.6227;321.4311;0.4007;0.5823;0.6115;-0.3556;
298.6289;259.9637;325.1462;0.3935;0.5860;0.6153;-0.3510;
296.1962;265.4597;330.2377;0.3837;0.5911;0.6200;-0.3449;
293.3305;271.6049;336.3972;0.3717;0.5969;0.6256;-0.3378;
291.3028;275.6901;340.7332;0.3630;0.6008;0.6295;-0.3330;
290.0694;278.1568;343.4329;0.3576;0.6032;0.6320;-0.3300;
288.8839;280.5551;346.1755;0.3521;0.6056;0.6344;-0.3269;
288.1161;282.0710;347.9026;0.3486;0.6070;0.6360;-0.3249;
287.7097;282.8327;348.7928;0.3469;0.6077;0.6368;-0.3239;
287.5620;283.1649;349.1143;0.3463;0.6079;0.6372;-0.3233;
287.4951;283.3041;349.1798;0.3461;0.6078;0.6374;-0.3231;
287.4929;283.3034;349.1802;0.3461;0.6078;0.6374;-0.3231;
287.4936;283.3069;349.1806;0.3461;0.6078;0.6374;-0.3231;
287.4905;283.3144;349.1831;0.3462;0.6078;0.6374;-0.3231;
287.4121;283.5081;349.2185;0.3466;0.6067;0.6383;-0.3230;
287.3630;283.8453;349.1830;0.3473;0.6045;0.6402;-0.3227;
287.2806;284.4457;349.0555;0.3485;0.6003;0.6437;-0.3222;
287.0230;286.0470;348.4486;0.3516;0.5888;0.6532;-0.3211;
286.5828;287.9961;347.3368;0.3556;0.5735;0.6650;-0.3200;
286.1750;289.3253;346.2912;0.3585;0.5623;0.6732;-0.3195;
264.2029;270.3062;262.2868;0.4127;0.1528;0.7907;-0.4257;
264.1632;270.1385;262.1317;0.4127;0.1522;0.7905;-0.4261;
264.0610;269.6208;261.5829;0.4127;0.1499;0.7903;-0.4273;
263.5155;266.9747;258.4312;0.4119;0.1360;0.7900;-0.4332;
262.9787;264.5494;255.5344;0.4109;0.1234;0.7897;-0.4385;
262.3889;261.9461;252.5282;0.4098;0.1106;0.7891;-0.4441;
261.8210;259.2953;249.5371;0.4085;0.0978;0.7883;-0.4496;
261.4000;257.1115;247.2076;0.4074;0.0878;0.7875;-0.4541;
260.9980;254.9277;244.9267;0.4062;0.0778;0.7867;-0.4584;
260.5810;252.6918;242.6603;0.4049;0.0680;0.7857;-0.4627;
260.1789;250.3536;240.4597;0.4035;0.0583;0.7845;-0.4672;
259.7828;247.9989;238.3057;0.4020;0.0487;0.7833;-0.4717;
259.3053;245.0191;235.6695;0.4000;0.0368;0.7817;-0.4771;
259.0164;243.1722;234.1139;0.3988;0.0298;0.7806;-0.4804;
258.4049;238.9051;230.5789;0.3957;0.0135;0.7779;-0.4880;
258.1247;237.0519;229.0766;0.3943;0.0067;0.7767;-0.4911;
257.7815;234.5176;227.1296;0.3924;-0.0024;0.7749;-0.4955;
257.3337;231.3365;224.7419;0.3898;-0.0137;0.7727;-0.5008;
256.8985;228.1059;222.4114;0.3871;-0.0249;0.7703;-0.5061;
256.5699;225.4408;220.6326;0.3849;-0.0336;0.7682;-0.5104;
256.3229;223.4397;219.3165;0.3832;-0.0401;0.7667;-0.5135;
255.7798;218.7543;216.3363;0.3791;-0.0551;0.7629;-0.5208;
255.4463;216.0093;214.6755;0.3766;-0.0636;0.7606;-0.5250;
255.1217;213.3012;213.0282;0.3741;-0.0720;0.7583;-0.5290;
254.8148;210.5473;211.4422;0.3715;-0.0804;0.7559;-0.5331;
254.5046;207.7217;209.9129;0.3688;-0.0885;0.7534;-0.5372;
254.2003;204.9161;208.4126;0.3660;-0.0967;0.7508;-0.5412;
253.9032;202.1151;206.9480;0.3633;-0.1048;0.7483;-0.5451;
253.3789;197.0786;204.5100;0.3582;-0.1188;0.7435;-0.5521;
253.0743;194.1921;203.1581;0.3552;-0.1267;0.7407;-0.5560;
252.7903;191.3097;201.8550;0.3521;-0.1345;0.7379;-0.5599;
252.3981;187.6264;200.2642;0.3482;-0.1441;0.7342;-0.5647;
252.1116;184.6793;199.0505;0.3450;-0.1518;0.7312;-0.5685;
251.8211;181.7259;197.8705;0.3418;-0.1594;0.7282;-0.5723;
251.6048;179.5065;197.0123;0.3393;-0.1651;0.7259;-0.5751;
251.1711;175.0088;195.3746;0.3343;-0.1762;0.7212;-0.5806;
250.8639;172.0046;194.3264;0.3308;-0.1835;0.7180;-0.5843;
250.5729;168.9901;193.3059;0.3273;-0.1908;0.7147;-0.5879;
250.2131;165.1770;192.1166;0.3229;-0.1999;0.7105;-0.5924;
249.9055;162.1068;191.1998;0.3192;-0.2069;0.7072;-0.5960;
249.6190;159.0646;190.3043;0.3156;-0.2140;0.7038;-0.5994;
249.3343;156.0076;189.4714;0.3119;-0.2210;0.7003;-0.6028;
248.8891;151.3500;188.3063;0.3062;-0.2313;0.6950;-0.6080;
248.5977;148.2641;187.5699;0.3023;-0.2381;0.6914;-0.6114;
248.2890;145.1529;186.8735;0.2984;-0.2450;0.6878;-0.6147;
248.0004;142.0344;186.2320;0.2945;-0.2516;0.6841;-0.6180;
247.6844;138.8785;185.6163;0.2905;-0.2582;0.6804;-0.6213;
247.3872;135.7592;185.0367;0.2864;-0.2647;0.6766;-0.6245;
247.0870;132.6393;184.4833;0.2823;-0.2713;0.6728;-0.6277;
246.6149;127.9128;183.7370;0.2761;-0.2809;0.6671;-0.6323;
246.3097;124.7686;183.2967;0.2719;-0.2873;0.6632;-0.6354;
246.0729;122.4061;182.9851;0.2688;-0.2919;0.6603;-0.6376;
245.5837;117.6757;182.4011;0.2623;-0.3013;0.6544;-0.6420;
245.2622;114.4964;182.0863;0.2579;-0.3075;0.6503;-0.6450;
245.0235;112.1072;181.8826;0.2546;-0.3121;0.6472;-0.6472;
244.7446;109.1509;181.6419;0.2504;-0.3179;0.6434;-0.6498;
244.4657;106.1801;181.4373;0.2462;-0.3238;0.6394;-0.6524;
244.3331;105.0184;181.3877;0.2446;-0.3259;0.6380;-0.6534;
244.2193;104.2394;181.3667;0.2435;-0.3270;0.6370;-0.6542;
244.1699;104.0230;181.3551;0.2433;-0.3272;0.6368;-0.6544;
244.1701;104.0178;181.3437;0.2433;-0.3272;0.6368;-0.6544;
244.1633;104.0146;181.2740;0.2432;-0.3272;0.6369;-0.6543;
244.1478;104.0040;181.0921;0.2432;-0.3272;0.6369;-0.6543;
244.1372;103.9967;180.9681;0.2432;-0.3272;0.6369;-0.6543;
244.1238;103.9821;180.8053;0.2432;-0.3272;0.6369;-0.6543;
244.1139;103.9689;180.6812;0.2432;-0.3272;0.6369;-0.6543;
244.0982;103.9529;180.4626;0.2431;-0.3272;0.6369;-0.6544;
244.0877;103.9625;180.2703;0.2431;-0.3273;0.6369;-0.6544;
244.0792;103.9689;180.0715;0.2430;-0.3273;0.6369;-0.6543;
244.0724;103.9568;179.8992;0.2430;-0.3272;0.6369;-0.6543;
244.0778;103.9490;179.6356;0.2431;-0.3272;0.6369;-0.6543;
244.0836;103.9578;179.5188;0.2431;-0.3272;0.6369;-0.6543;
244.0882;103.9591;179.3682;0.2431;-0.3272;0.6369;-0.6544;
244.0934;103.9547;179.1818;0.2431;-0.3272;0.6369;-0.6544;
244.0951;103.9546;179.0287;0.2431;-0.3272;0.6369;-0.6544;
244.0988;103.9602;178.8732;0.2431;-0.3272;0.6369;-0.6544;
244.1021;103.9746;178.7063;0.2432;-0.3272;0.6369;-0.6544;
244.1015;103.9794;178.4092;0.2432;-0.3272;0.6369;-0.6544;
244.0984;103.9853;178.2315;0.2431;-0.3272;0.6368;-0.6544;
244.0990;103.9974;178.0635;0.2431;-0.3272;0.6369;-0.6544;
244.1019;104.0079;177.9003;0.2432;-0.3272;0.6369;-0.6544;
244.1065;104.0071;177.7523;0.2432;-0.3271;0.6369;-0.6544;
244.1104;104.0019;177.6076;0.2432;-0.3271;0.6368;-0.6544;
244.1134;103.9990;177.4618;0.2432;-0.3271;0.6368;-0.6544;
244.1246;104.0044;177.2450;0.2432;-0.3271;0.6368;-0.6545;
244.1318;104.0008;177.0987;0.2432;-0.3272;0.6368;-0.6545;
244.1335;103.9971;176.9373;0.2432;-0.3272;0.6368;-0.6545;
244.1312;104.0060;176.7159;0.2432;-0.3272;0.6368;-0.6544;
244.1275;104.0169;176.5761;0.2432;-0.3272;0.6368;-0.6544;
244.1234;104.0320;176.3908;0.2432;-0.3272;0.6369;-0.6544;
244.1220;104.0399;176.2171;0.2432;-0.3272;0.6369;-0.6543;
244.1231;104.0441;175.9791;0.2433;-0.3272;0.6369;-0.6543;
244.1286;104.0454;175.8341;0.2432;-0.3272;0.6368;-0.6544;
244.1366;104.0406;175.7002;0.2433;-0.3272;0.6368;-0.6544;
244.1439;104.0368;175.5639;0.2433;-0.3271;0.6368;-0.6544;
244.1493;104.0323;175.4252;0.2433;-0.3271;0.6368;-0.6545;
244.1531;104.0288;175.2835;0.2433;-0.3270;0.6367;-0.6545;
244.1524;104.0330;175.1226;0.2433;-0.3271;0.6367;-0.6545;
244.1400;104.0497;174.8321;0.2433;-0.3271;0.6368;-0.6544;
244.1301;104.0611;174.5999;0.2433;-0.3272;0.6368;-0.6544;
244.1250;104.0658;174.4242;0.2433;-0.3272;0.6368;-0.6544;
244.1202;104.0678;174.2510;0.2433;-0.3272;0.6369;-0.6543;
244.1172;104.0668;174.0900;0.2433;-0.3271;0.6369;-0.6543;
244.1190;104.0588;173.9404;0.2433;-0.3271;0.6369;-0.6543;
244.1206;104.0483;173.7954;0.2433;-0.3271;0.6369;-0.6544;
244.1244;104.0394;173.5387;0.2433;-0.3272;0.6368;-0.6544;
244.1241;104.0358;173.3865;0.2433;-0.3272;0.6368;-0.6544;
244.1219;104.0347;173.2639;0.2433;-0.3272;0.6368;-0.6544;
244.1167;104.0333;173.0442;0.2433;-0.3272;0.6368;-0.6544;
244.1116;104.0323;172.8677;0.2433;-0.3272;0.6368;-0.6544;
244.1070;104.0318;172.6891;0.2433;-0.3271;0.6369;-0.6544;
244.1016;104.0307;172.5140;0.2433;-0.3271;0.6369;-0.6544;
244.0960;104.0285;172.2543;0.2432;-0.3271;0.6369;-0.6544;
244.0977;104.0263;172.0985;0.2432;-0.3271;0.6368;-0.6544;
244.1002;104.0202;171.9590;0.2432;-0.3271;0.6368;-0.6544;
244.1032;104.0129;171.7805;0.2432;-0.3271;0.6368;-0.6545;
244.1004;104.0100;171.6221;0.2432;-0.3271;0.6368;-0.6545;
244.0976;104.0142;171.4120;0.2432;-0.3271;0.6368;-0.6544;
244.0918;104.0184;171.2374;0.2432;-0.3271;0.6368;-0.6544;
244.0844;104.0232;170.9831;0.2432;-0.3272;0.6369;-0.6544;
244.0815;104.0272;170.8185;0.2432;-0.3272;0.6369;-0.6544;
244.0826;104.0267;170.6622;0.2432;-0.3272;0.6369;-0.6544;
244.0834;104.0259;170.5039;0.2432;-0.3272;0.6368;-0.6544;
244.0839;104.0234;170.3466;0.2432;-0.3272;0.6368;-0.6544;
244.0843;104.0197;170.1932;0.2432;-0.3272;0.6368;-0.6544;
244.0844;104.0173;170.0790;0.2432;-0.3272;0.6368;-0.6544;
244.0850;104.0184;169.9248;0.2433;-0.3271;0.6368;-0.6544;
244.0826;104.0288;169.6391;0.2433;-0.3271;0.6368;-0.6544;
244.0827;104.0333;169.4788;0.2433;-0.3271;0.6368;-0.6544;
244.0836;104.0328;169.2806;0.2433;-0.3271;0.6368;-0.6544;
244.0838;104.0327;169.1615;0.2433;-0.3271;0.6368;-0.6544;
244.0862;104.0276;169.0095;0.2433;-0.3271;0.6368;-0.6545;
244.0860;104.0285;168.8466;0.2432;-0.3271;0.6368;-0.6545;
244.0807;104.0263;168.5579;0.2433;-0.3271;0.6368;-0.6544;
244.0799;104.0231;168.3968;0.2433;-0.3271;0.6368;-0.6544;
244.0768;104.0236;168.2716;0.2433;-0.3271;0.6369;-0.6544;
244.0718;104.0272;168.0647;0.2433;-0.3271;0.6369;-0.6544;
244.0700;104.0262;167.9092;0.2433;-0.3271;0.6368;-0.6544;
244.0690;104.0246;167.7920;0.2433;-0.3271;0.6368;-0.6544;
244.0666;104.0240;167.5989;0.2433;-0.3272;0.6368;-0.6544;
244.0697;104.0190;167.3778;0.2432;-0.3272;0.6368;-0.6544;
244.0692;104.0160;167.2178;0.2432;-0.3272;0.6368;-0.6545;
244.0655;104.0116;167.0491;0.2433;-0.3272;0.6368;-0.6544;
244.0624;104.0150;166.7960;0.2433;-0.3271;0.6368;-0.6544;
244.0622;104.0175;166.6320;0.2433;-0.3271;0.6368;-0.6544;
244.0596;104.0205;166.4187;0.2433;-0.3271;0.6368;-0.6544;
244.0561;104.0354;166.1141;0.2432;-0.3272;0.6368;-0.6544;
244.0577;104.0410;165.9534;0.2432;-0.3272;0.6368;-0.6544;
244.0603;104.0446;165.8405;0.2432;-0.3272;0.6368;-0.6544;
244.0656;104.0467;165.6184;0.2433;-0.3271;0.6368;-0.6544;
244.0659;104.0472;165.4683;0.2433;-0.3271;0.6368;-0.6544;
244.0664;104.0507;165.3116;0.2433;-0.3271;0.6368;-0.6544;
244.0668;104.0518;165.1903;0.2434;-0.3271;0.6368;-0.6544;
244.0588;104.0546;164.8496;0.2433;-0.3271;0.6368;-0.6544;
244.0502;104.0615;164.6620;0.2433;-0.3272;0.6368;-0.6544;
244.0393;104.0691;164.4691;0.2432;-0.3272;0.6369;-0.6543;
244.0316;104.0737;164.2877;0.2432;-0.3273;0.6369;-0.6543;
244.0320;104.0701;164.1346;0.2432;-0.3272;0.6369;-0.6543;
244.0385;104.0583;163.9937;0.2432;-0.3272;0.6369;-0.6544;
244.0401;104.0502;163.8809;0.2433;-0.3272;0.6369;-0.6544;
244.0477;104.0356;163.5826;0.2433;-0.3271;0.6368;-0.6544;
244.0492;104.0327;163.4700;0.2433;-0.3271;0.6368;-0.6544;
244.0523;104.0314;163.2791;0.2433;-0.3271;0.6368;-0.6544;
244.0498;104.0385;163.0291;0.2433;-0.3271;0.6368;-0.6544;
244.0490;104.0442;162.8612;0.2433;-0.3272;0.6368;-0.6544;
244.0436;104.0500;162.6803;0.2433;-0.3272;0.6368;-0.6544;
244.0369;104.0563;162.5008;0.2433;-0.3272;0.6369;-0.6544;
244.0347;104.0563;162.3368;0.2433;-0.3271;0.6369;-0.6543;
244.0348;104.0540;162.1844;0.2433;-0.3271;0.6369;-0.6543;
244.0338;104.0523;162.0328;0.2433;-0.3271;0.6369;-0.6543;
244.0338;104.0486;161.8492;0.2434;-0.3271;0.6369;-0.6544;
244.0340;104.0413;161.7067;0.2433;-0.3271;0.6368;-0.6544;
244.0354;104.0346;161.5606;0.2433;-0.3271;0.6368;-0.6544;
244.0345;104.0283;161.4448;0.2433;-0.3271;0.6368;-0.6544;
244.0261;104.0221;161.1518;0.2432;-0.3272;0.6368;-0.6544;
244.0161;104.0262;160.9657;0.2432;-0.3272;0.6368;-0.6544;
244.0066;104.0272;160.7855;0.2432;-0.3272;0.6368;-0.6544;
243.9975;104.0276;160.5282;0.2432;-0.3272;0.6369;-0.6544;
243.9958;104.0264;160.3712;0.2433;-0.3271;0.6369;-0.6544;
243.9975;104.0233;160.2304;0.2433;-0.3271;0.6369;-0.6544;
244.0025;104.0202;160.0903;0.2433;-0.3271;0.6368;-0.6544;
244.0068;104.0137;159.9513;0.2433;-0.3271;0.6368;-0.6545;
244.0124;104.0066;159.8151;0.2433;-0.3271;0.6367;-0.6545;
244.0184;104.0047;159.6713;0.2432;-0.3272;0.6367;-0.6545;
244.0137;104.0151;159.4109;0.2433;-0.3271;0.6367;-0.6545;
244.0021;104.0290;159.2145;0.2433;-0.3272;0.6368;-0.6544;
243.9914;104.0411;159.0144;0.2433;-0.3272;0.6368;-0.6544;
243.9864;104.0502;158.8341;0.2433;-0.3272;0.6369;-0.6543;
243.9869;104.0545;158.6695;0.2433;-0.3272;0.6369;-0.6543;
243.9874;104.0529;158.5535;0.2433;-0.3272;0.6369;-0.6543;
243.9891;104.0511;158.3597;0.2433;-0.3272;0.6369;-0.6544;
243.9991;104.0444;158.1136;0.2433;-0.3271;0.6368;-0.6544;
244.0027;104.0404;158.0073;0.2433;-0.3271;0.6368;-0.6544;
244.0057;104.0389;157.8151;0.2433;-0.3272;0.6368;-0.6544;
244.0017;104.0368;157.5612;0.2433;-0.3272;0.6368;-0.6544;
243.9944;104.0375;157.3783;0.2433;-0.3271;0.6368;-0.6544;
243.9862;104.0415;157.1969;0.2433;-0.3271;0.6368;-0.6544;
243.9810;104.0459;157.0207;0.2433;-0.3271;0.6368;-0.6544;
243.9759;104.0467;156.8484;0.2432;-0.3271;0.6369;-0.6544;
243.9715;104.0418;156.6817;0.2432;-0.3271;0.6369;-0.6544;
243.9730;104.0351;156.5307;0.2432;-0.3271;0.6369;-0.6544;
243.9833;104.0188;156.3251;0.2433;-0.3271;0.6368;-0.6544;
243.9826;104.0142;156.1719;0.2433;-0.3271;0.6368;-0.6544;
243.9770;104.0186;156.0016;0.2432;-0.3272;0.6368;-0.6544;
243.9721;104.0269;155.7806;0.2432;-0.3272;0.6368;-0.6544;
243.9680;104.0308;155.6152;0.2433;-0.3272;0.6369;-0.6544;
243.9650;104.0363;155.4471;0.2433;-0.3272;0.6369;-0.6543;
243.9632;104.0384;155.3241;0.2433;-0.3272;0.6369;-0.6543;
243.9635;104.0373;155.0535;0.2433;-0.3272;0.6369;-0.6543;
243.9605;104.0400;154.9304;0.2433;-0.3272;0.6369;-0.6544;
243.9586;104.0417;154.7738;0.2433;-0.3272;0.6369;-0.6544;
243.9597;104.0388;154.5878;0.2433;-0.3271;0.6368;-0.6544;
243.9590;104.0335;154.4317;0.2433;-0.3271;0.6368;-0.6544;
243.9555;104.0313;154.2680;0.2433;-0.3271;0.6368;-0.6544;
243.9615;104.0381;154.1460;0.2433;-0.3271;0.6368;-0.6544;
243.9571;104.0333;153.9438;0.2433;-0.3271;0.6368;-0.6544;
243.9593;104.0309;153.7879;0.2433;-0.3271;0.6368;-0.6544;
243.9608;104.0304;153.6322;0.2433;-0.3271;0.6368;-0.6544;
243.9594;104.0345;153.5108;0.2433;-0.3272;0.6368;-0.6544;
243.9577;104.0474;153.2231;0.2433;-0.3272;0.6368;-0.6544;
243.9577;104.0514;153.0633;0.2433;-0.3272;0.6368;-0.6544;
243.9581;104.0511;152.9416;0.2433;-0.3272;0.6368;-0.6544;
243.9556;104.0542;152.7357;0.2433;-0.3272;0.6369;-0.6543;
243.9543;104.0564;152.5806;0.2433;-0.3272;0.6369;-0.6543;
243.9548;104.0572;152.4258;0.2433;-0.3271;0.6369;-0.6543;
243.9538;104.0582;152.3066;0.2433;-0.3271;0.6369;-0.6543;
243.9550;104.0475;152.0447;0.2433;-0.3271;0.6368;-0.6544;
243.9572;104.0385;151.9029;0.2433;-0.3271;0.6368;-0.6545;
243.9573;104.0327;151.7500;0.2433;-0.3271;0.6367;-0.6545;
243.9520;104.0346;151.5373;0.2433;-0.3271;0.6368;-0.6545;
243.9513;104.0363;151.4317;0.2433;-0.3271;0.6368;-0.6545;
243.9514;104.0361;151.3984;0.2433;-0.3271;0.6368;-0.6544;
243.9496;104.0365;151.3797;0.2433;-0.3271;0.6368;-0.6544;
243.9487;104.0360;151.3747;0.2433;-0.3271;0.6368;-0.6544;
243.9486;104.0354;151.3733;0.2433;-0.3271;0.6368;-0.6544;
243.9482;104.0362;151.3728;0.2433;-0.3271;0.6368;-0.6544;
243.9484;104.0369;151.3726;0.2433;-0.3271;0.6368;-0.6544;
243.9475;104.0363;151.3719;0.2433;-0.3271;0.6368;-0.6544;
243.9473;104.0373;151.3716;0.2433;-0.3271;0.6368;-0.6544;
243.9474;104.0369;151.3714;0.2433;-0.3271;0.6368;-0.6544;
243.9474;104.0370;151.3713;0.2433;-0.3272;0.6368;-0.6544;
243.9464;104.0372;151.3705;0.2433;-0.3271;0.6368;-0.6544;
243.9467;104.0371;151.3713;0.2433;-0.3271;0.6368;-0.6544;
243.9462;104.0365;151.3711;0.2433;-0.3272;0.6368;-0.6544;
243.9454;104.0377;151.3708;0.2433;-0.3272;0.6368;-0.6544;
243.9454;104.0377;151.3708;0.2433;-0.3272;0.6368;-0.6544;
243.9448;104.0370;151.3707;0.2433;-0.3272;0.6368;-0.6544;
243.9447;104.0365;151.3714;0.2433;-0.3272;0.6368;-0.6544;
243.9439;104.0376;151.3708;0.2433;-0.3272;0.6368;-0.6544;
243.9436;104.0372;151.3708;0.2433;-0.3272;0.6368;-0.6544;
243.9436;104.0372;151.3708;0.2433;-0.3271;0.6368;-0.6544;
243.9437;104.0372;151.3710;0.2433;-0.3271;0.6368;-0.6544;
243.9431;104.0373;151.3708;0.2433;-0.3272;0.6368;-0.6544;
243.9429;104.0380;151.3707;0.2433;-0.3272;0.6368;-0.6544;
243.9428;104.0376;151.3712;0.2433;-0.3272;0.6368;-0.6544;
243.9421;104.0384;151.3711;0.2433;-0.3271;0.6368;-0.6544;
243.9421;104.0383;151.3711;0.2433;-0.3272;0.6368;-0.6544;
243.9418;104.0379;151.3710;0.2433;-0.3271;0.6368;-0.6544;
243.9418;104.0377;151.3713;0.2433;-0.3271;0.6368;-0.6544;
