MODULE CalibData
    !Do not delete the following common data
    
    !Right Hand fetures standard gripper, one vacuum and integrated camera.
    !The following comes from original documentation: don't change unless you mechanically change fingers geometry or vacuum geometry.
    TASK PERS tooldata tGripper:=[TRUE,[[0,0,136],[1,0,0,0]],[0.230,[8.2,11.7,52],[1,0,0,0],0.00021,0.00024,0.00009]];
    TASK PERS tooldata tVacuum1:=[TRUE,[[63.5,18.5,37.5],[0.707106781,0,0.707106781,0]],[0.248,[8.6,11.7,52.7],[1,0,0,0],0.00021,0.00024,0.00009]];
    ! TASK PERS tooldata tVacuum2:=[TRUE,[[-63.5,18.5,37.5],[0.707106781,0,-0.707106781,0]],[0.280,[7.1,11.9,47.3],[1,0,0,0],0.00025,0.00029,0.00012]];
    TASK PERS tooldata tVision:=[TRUE,[[-7.3,28.3,35.1],[0.70710678,-0.70710678,0,0]],[0.244,[7.5,11.8,52.7],[1,0,0,0],0.00021,0.00023,0.00008]];
    
    !Ice Lab station common workObjects.
    !Each arm needs it's own calibration for them. Remember to comment out the unreachable ones
    TASK PERS wobjdata wPalletIndex:=[FALSE,TRUE,"",[[342.876,8.6455,24.3449],[0.706918,-0.00270252,0.00286321,-0.707284]],[[-24.0444,-23.8255,0],[0.985346,0,0,-0.170568]]];
    TASK PERS wobjdata wLeftBuffer:=[FALSE,TRUE,"",[[191.49,429.112,0.805085],[4.17522E-07,-0.709708,0.704496,-8.72324E-06]],[[-24.0444,-23.8255,0],[0.985346,0,0,-0.170568]]];
    !TASK PERS wobjdata wRightBuffer:=[FALSE,TRUE,"",[[343.092,8.9235,24.4647],[0.709829,-0.000884525,0.000543557,-0.704374]],[[-24.0444,-23.8255,0],[0.985346,0,0,-0.170568]]];
    
    !The arms home positon. Dont' change!
    TASK PERS jointtarget jpHomeL:=[[0,-130,30,0,40,0],[135,9E9,9E9,9E9,9E9,9E9]];
    !TASK PERS jointtarget jpHomeR:=[[0,-130,30,0,40,0],[-135,9E9,9E9,9E9,9E9,9E9]];
    
    
ENDMODULE